    1  -989.00
    2 -1273.00
    3 -1069.00
    4  -961.00
    5 -1040.00
    6 -1044.00
    7 -1205.00
    8 -1157.00
    9 -1040.00
   10 -1128.00
   11 -1241.00
   12 -1172.00
   13 -1173.00
   14 -1150.00
   15 -1162.00
   16 -1369.00
   17 -1127.00
   18 -1280.00
   19 -1028.00
   20  -999.00
   21  -929.00
   22 -1106.00
   23 -1128.00
   24 -1071.00
   25 -1108.00
   26 -1114.00
   27 -1128.00
   28 -1154.00
   29 -1051.00
   30 -1048.00
   31 -1007.00
   32 -1141.00
   33 -1246.00
   34 -1143.00
   35 -1144.00
   36 -1049.00
   37 -1123.00
   38 -1134.00
   39 -1030.00
   40 -1010.00
   41 -1047.00
   42 -1221.00
   43 -1127.00
   44  -967.00
   45 -1123.00
   46 -1021.00
   47 -1061.00
   48 -1163.00
   49 -1180.00
   50 -1124.00
   51 -1043.00
   52 -1105.00
   53 -1215.00
   54 -1218.00
   55 -1133.00
   56 -1028.00
   57 -1073.00
   58 -1203.00
   59 -1115.00
   60 -1109.00
   61 -1045.00
   62  -999.00
   63 -1004.00
   64  -969.00
   65 -1027.00
   66 -1193.00
   67 -1279.00
   68 -1118.00
   69 -1034.00
   70 -1150.00
   71 -1027.00
   72 -1005.00
   73 -1139.00
   74 -1062.00
   75 -1041.00
   76  -994.00
   77 -1085.00
   78  -974.00
   79 -1114.00
   80 -1158.00
   81 -1131.00
   82 -1291.00
   83 -1099.00
   84 -1263.00
   85 -1205.00
   86 -1144.00
   87 -1135.00
   88 -1081.00
   89  -969.00
   90 -1082.00
   91 -1225.00
   92 -1100.00
   93 -1201.00
   94 -1085.00
   95  -984.00
   96 -1045.00
   97 -1071.00
   98 -1081.00
   99 -1110.00
  100 -1102.00
