# Running ./ex_plot_VonMises_mixture 0.487862 -3.00582 17.4059 0.0794212 -1.02886 112.164 0.432717 1.10223 68.0564
-3.142  0.686710
-3.092  0.756080
-3.042  0.797110
-2.992  0.804577
-2.941  0.777509
-2.891  0.719397
-2.841  0.637444
-2.791  0.541075
-2.741  0.440141
-2.691  0.343297
-2.641  0.256899
-2.591  0.184580
-2.541  0.127437
-2.491  0.084624
-2.441  0.054104
-2.391  0.033342
-2.341  0.019829
-2.291  0.011395
-2.241  0.006336
-2.191  0.003415
-2.141  0.001786
-2.091  0.000908
-2.041  0.000450
-1.991  0.000217
-1.941  0.000102
-1.891  0.000047
-1.841  0.000021
-1.791  0.000010
-1.741  0.000004
-1.691  0.000002
-1.641  0.000001
-1.591  0.000000
-1.541  0.000000
-1.491  0.000003
-1.441  0.000028
-1.391  0.000235
-1.341  0.001500
-1.291  0.007337
-1.241  0.027358
-1.191  0.077535
-1.141  0.166577
-1.091  0.270780
-1.041  0.332638
-0.991  0.308642
-0.940  0.216347
-0.890  0.114668
-0.840  0.046028
-0.790  0.014024
-0.740  0.003253
-0.690  0.000577
-0.640  0.000078
-0.590  0.000008
-0.540  0.000001
-0.490  0.000000
-0.440  0.000000
-0.390  0.000000
-0.340  0.000000
-0.290  0.000000
-0.240  0.000000
-0.190  0.000000
-0.140  0.000000
-0.090  0.000000
-0.040  0.000000
 0.010  0.000000
 0.060  0.000000
 0.110  0.000000
 0.160  0.000000
 0.210  0.000000
 0.260  0.000000
 0.310  0.000000
 0.360  0.000000
 0.410  0.000000
 0.460  0.000002
 0.510  0.000013
 0.560  0.000083
 0.610  0.000445
 0.660  0.002059
 0.710  0.008171
 0.760  0.027704
 0.810  0.080012
 0.860  0.196312
 0.910  0.408259
 0.960  0.718340
 1.011  1.067862
 1.061  1.339863
 1.111  1.418139
 1.161  1.265986
 1.211  0.953485
 1.261  0.606293
 1.311  0.325856
 1.361  0.148258
 1.411  0.057216
 1.461  0.018774
 1.511  0.005252
 1.561  0.001257
 1.611  0.000258
 1.661  0.000046
 1.711  0.000007
 1.761  0.000001
 1.811  0.000000
 1.861  0.000000
 1.911  0.000001
 1.961  0.000002
 2.011  0.000004
 2.061  0.000009
 2.111  0.000021
 2.161  0.000046
 2.211  0.000100
 2.261  0.000213
 2.311  0.000441
 2.361  0.000890
 2.411  0.001753
 2.461  0.003354
 2.511  0.006230
 2.561  0.011213
 2.611  0.019531
 2.661  0.032873
 2.711  0.053398
 2.761  0.083608
 2.811  0.126043
 2.861  0.182764
 2.911  0.254660
 2.962  0.340699
 3.012  0.437323
 3.062  0.538251
 3.112  0.634882
