# Running ./polymer -polymer::n_beads=20 -sample:t_start=1.0 -sample:t_steps=1-sample:mc_inner_cycles=500 -sample:mc_outer_cycles=10 -sample::perturb::range=0.3 -sample:seed=82345 -v=INFO
#      TotalEnergyByResidue                     ExcludedVolumePenalty ContactEnergy SimplePolymerBonds force-field-tag
#      TotalEnergyByResidue                     ExcludedVolumePenalty ContactEnergy SimplePolymerBonds force-field-tag
    1                -12.22                  0.00        -19.00               0.68 
    2                 -8.28                  0.00        -17.00               0.87 
    3                 -7.68                  0.00        -17.00               0.93 
    4                 -6.85                  0.00        -12.00               0.51 
    5                  1.23                  0.00         -8.00               0.92 
    6                 -6.34                  0.00        -17.00               1.07 
    7                -10.18                  0.00        -20.00               0.98 
    8                 -0.23                  0.00        -11.00               1.08 
    9                -12.99                  0.00        -22.00               0.90 
   10                 -3.96                  0.00        -14.00               1.00 
