# Running ./ap_molecule_diffusion test_inputs/ar_tra.pdb AR 27.6214
    1 5.927873 3.437585
    2 7.722160 3.746786
    3 8.733550 3.812513
    4 9.312359 3.841327
    5 9.657358 3.819682
    6 9.868778 3.761056
    7 10.072050 3.761679
    8 10.234600 3.799073
    9 10.322477 3.835015
   10 10.423271 3.791699
   11 10.518187 3.813210
   12 10.563736 3.788507
   13 10.629844 3.778327
   14 10.684224 3.785892
   15 10.715990 3.788207
   16 10.715312 3.776411
   17 10.793625 3.753046
   18 10.894639 3.741005
   19 10.905126 3.793636
   20 10.942802 3.829056
