# Running ./ex_cabsbb_representation test_inputs/2gb1.pdb
# Running ./ex_cabsbb_representation test_inputs/1rrx.pdb
# Running ./ex_cabsbb_representation test_inputs/5l3z.pdb
# Running ./ex_cabsbb_representation test_inputs/5lpc.pdb
