#Running ./ap_atom_correlations test_inputs/2kwi.pdb | sort -nk 9 | grep -v e | tail -200
   9 GLN CA-Z   93 PHE CA-Y    5  256 -0.139792
   9 GLN CA-Z   93 PHE CA-Z    5  257 -0.0168844
   9 GLN CA-Z   94 SER CA-X    5  258 0.026629
   9 GLN CA-Z   94 SER CA-Y    5  259 -0.0972225
   9 GLN CA-Z   94 SER CA-Z    5  260 -0.136956
   9 GLN CA-Z   95 ILE CA-X    5  261 0.018742
   9 GLN CA-Z   95 ILE CA-Y    5  262 -0.0421498
   9 GLN CA-Z   95 ILE CA-Z    5  263 -0.00858604
   9 GLN CA-Z   96 THR CA-X    5  264 0.103762
   9 GLN CA-Z   96 THR CA-Y    5  265 -0.0458792
   9 GLN CA-Z   96 THR CA-Z    5  266 -0.0309965
   9 GLN CA-Z   97 GLU CA-X    5  267 0.0706969
   9 GLN CA-Z   97 GLU CA-Y    5  268 0.0201259
   9 GLN CA-Z   97 GLU CA-Z    5  269 -0.062097
   9 GLN CA-Z   98 HIS CA-X    5  270 0.0440518
   9 GLN CA-Z   98 HIS CA-Y    5  271 -0.0417783
   9 GLN CA-Z   98 HIS CA-Z    5  272 0.0268404
   9 GLN CA-Z   99 GLU CA-X    5  273 0.015905
   9 GLN CA-Z   99 GLU CA-Y    5  274 -0.0303752
   9 GLN CA-Z   99 GLU CA-Z    5  275 0.0362824
   9 GLN CA-Z    9 GLN CA-X    5    3 0.91443
   9 GLN CA-Z    9 GLN CA-Z    5    5 0
  10 SER CA-X   11 SER CA-Z    6   11 1.00264
  10 SER CA-Y   10 SER CA-Z    7    8 1.88157
  10 SER CA-Y    8 GLY CA-X    7    0 1.07522
  10 SER CA-Y    9 GLN CA-Y    7    4 1.96475
  10 SER CA-Z   10 SER CA-Y    8    7 1.88157
  10 SER CA-Z    8 GLY CA-Z    8    2 1.22928
  10 SER CA-Z    9 GLN CA-X    8    3 1.56512
  11 SER CA-Y   11 SER CA-Z   10   11 1.06832
  11 SER CA-Z   10 SER CA-X   11    6 1.00264
  11 SER CA-Z   11 SER CA-Y   11   10 1.06832
  11 SER CA-Z  391 GLY CA-X   11  534 1.0952
  12 LEU CA-X  185 LYS CA-X   12  531 1.02511
 179 LYS CA-X  184 ASN CA-X  513  528 1.02866
 180 LYS CA-X  184 ASN CA-X  516  528 1.06903
 180 LYS CA-X  185 LYS CA-X  516  531 1.01714
 181 MET CA-X  182 SER CA-X  519  522 1.09518
 181 MET CA-X  184 ASN CA-X  519  528 1.11589
 181 MET CA-X  185 LYS CA-X  519  531 1.03417
 182 SER CA-X  181 MET CA-X  522  519 1.09518
 182 SER CA-X  183 GLU CA-X  522  525 1.26133
 182 SER CA-X  184 ASN CA-X  522  528 1.43385
 182 SER CA-X  184 ASN CA-Y  522  529 1.21921
 182 SER CA-X  185 LYS CA-X  522  531 1.20842
 182 SER CA-X  185 LYS CA-Y  522  532 1.21578
 182 SER CA-Z  183 GLU CA-Z  524  527 1.0437
 182 SER CA-Z  185 LYS CA-Y  524  532 1.22964
 183 GLU CA-X  182 SER CA-X  525  522 1.26133
 183 GLU CA-X  183 GLU CA-Y  525  526 1.31853
 183 GLU CA-X  184 ASN CA-Y  525  529 1.52669
 183 GLU CA-X  391 GLY CA-Y  525  535 1.10053
 183 GLU CA-Y  183 GLU CA-X  526  525 1.31853
 183 GLU CA-Y  183 GLU CA-Z  526  527 1.06872
 183 GLU CA-Z  182 SER CA-Z  527  524 1.0437
 183 GLU CA-Z  183 GLU CA-Y  527  526 1.06872
 183 GLU CA-Z  184 ASN CA-X  527  528 1.93776
 183 GLU CA-Z  184 ASN CA-Y  527  529 1.73376
 183 GLU CA-Z  185 LYS CA-X  527  531 1.73484
 184 ASN CA-X  179 LYS CA-X  528  513 1.02866
 184 ASN CA-X  180 LYS CA-X  528  516 1.06903
 184 ASN CA-X  181 MET CA-X  528  519 1.11589
 184 ASN CA-X  182 SER CA-X  528  522 1.43385
 184 ASN CA-X  183 GLU CA-Z  528  527 1.93776
 184 ASN CA-X   24 GLY CA-Y  528   49 1.14262
 184 ASN CA-X  391 GLY CA-Y  528  535 1.30636
 184 ASN CA-X   71 GLY CA-Y  528  190 1.02528
 184 ASN CA-X    8 GLY CA-Z  528    2 1.30835
 184 ASN CA-Y  182 SER CA-X  529  522 1.21921
 184 ASN CA-Y  183 GLU CA-X  529  525 1.52669
 184 ASN CA-Y  183 GLU CA-Z  529  527 1.73376
 184 ASN CA-Y  184 ASN CA-Z  529  530 1.06698
 184 ASN CA-Y  392 SER CA-Z  529  539 1.27168
 184 ASN CA-Y  393 GLU CA-Z  529  542 1.08145
 184 ASN CA-Y    8 GLY CA-X  529    0 1.15724
 184 ASN CA-Y    8 GLY CA-Y  529    1 1.16757
 184 ASN CA-Y    8 GLY CA-Z  529    2 1.12217
 184 ASN CA-Y    9 GLN CA-X  529    3 1.08679
 184 ASN CA-Y    9 GLN CA-Y  529    4 1.00158
 184 ASN CA-Z  184 ASN CA-Y  530  529 1.06698
 184 ASN CA-Z  185 LYS CA-Y  530  532 1.43717
 185 LYS CA-X   12 LEU CA-X  531   12 1.02511
 185 LYS CA-X  180 LYS CA-X  531  516 1.01714
 185 LYS CA-X  181 MET CA-X  531  519 1.03417
 185 LYS CA-X  182 SER CA-X  531  522 1.20842
 185 LYS CA-X  183 GLU CA-Z  531  527 1.73484
 185 LYS CA-X   24 GLY CA-Y  531   49 1.23763
 185 LYS CA-X  391 GLY CA-Y  531  535 1.11203
 185 LYS CA-X   71 GLY CA-Y  531  190 1.53386
 185 LYS CA-X    8 GLY CA-Z  531    2 1.43594
 185 LYS CA-Y  182 SER CA-X  532  522 1.21578
 185 LYS CA-Y  182 SER CA-Z  532  524 1.22964
 185 LYS CA-Y  184 ASN CA-Z  532  530 1.43717
 185 LYS CA-Y    8 GLY CA-Y  532    1 1.44467
 185 LYS CA-Z   44 GLU CA-Z  533  110 1.023
 185 LYS CA-Z   45 PRO CA-Z  533  113 1.26686
  24 GLY CA-Y  184 ASN CA-X   49  528 1.14262
  24 GLY CA-Y  185 LYS CA-X   49  531 1.23763
 391 GLY CA-X   11 SER CA-Z  534   11 1.0952
 391 GLY CA-X  391 GLY CA-Z  534  536 1.34661
 391 GLY CA-X  392 SER CA-X  534  537 1.16466
 391 GLY CA-Y  183 GLU CA-X  535  525 1.10053
 391 GLY CA-Y  184 ASN CA-X  535  528 1.30636
 391 GLY CA-Y  185 LYS CA-X  535  531 1.11203
 391 GLY CA-Y  392 SER CA-Y  535  538 1.20086
 391 GLY CA-Y  393 GLU CA-Y  535  541 1.62807
 391 GLY CA-Y  394 THR CA-Y  535  544 1.30833
 391 GLY CA-Z  391 GLY CA-X  536  534 1.34661
 391 GLY CA-Z  393 GLU CA-Z  536  542 1.01772
 392 SER CA-X  391 GLY CA-X  537  534 1.16466
 392 SER CA-Y  391 GLY CA-Y  538  535 1.20086
 392 SER CA-Y  393 GLU CA-Y  538  541 1.0298
 392 SER CA-Z  184 ASN CA-Y  539  529 1.27168
 392 SER CA-Z  393 GLU CA-Z  539  542 1.00794
 393 GLU CA-Y  391 GLY CA-Y  541  535 1.62807
 393 GLU CA-Y  392 SER CA-Y  541  538 1.0298
 393 GLU CA-Y  394 THR CA-Y  541  544 1.06996
 393 GLU CA-Z  184 ASN CA-Y  542  529 1.08145
 393 GLU CA-Z  391 GLY CA-Z  542  536 1.01772
 393 GLU CA-Z  392 SER CA-Z  542  539 1.00794
 394 THR CA-Y  391 GLY CA-Y  544  535 1.30833
 394 THR CA-Y  393 GLU CA-Y  544  541 1.06996
  44 GLU CA-Z  185 LYS CA-Z  110  533 1.023
  45 PRO CA-Z  185 LYS CA-Z  113  533 1.26686
  71 GLY CA-Y  184 ASN CA-X  190  528 1.02528
  71 GLY CA-Y  185 LYS CA-X  190  531 1.53386
   8 GLY CA-X   10 SER CA-Y    0    7 1.07522
   8 GLY CA-X  184 ASN CA-Y    0  529 1.15724
   8 GLY CA-X    9 GLN CA-Y    0    4 1.12825
   8 GLY CA-X    9 GLN CA-Z    0    5 1.56681
   8 GLY CA-Y  184 ASN CA-Y    1  529 1.16757
   8 GLY CA-Y  185 LYS CA-Y    1  532 1.44467
   8 GLY CA-Z   10 SER CA-Z    2    8 1.22928
   8 GLY CA-Z  184 ASN CA-X    2  528 1.30835
   8 GLY CA-Z  184 ASN CA-Y    2  529 1.12217
   8 GLY CA-Z  185 LYS CA-X    2  531 1.43594
   8 GLY CA-Z    9 GLN CA-Y    2    4 1.79979
   9 GLN CA-X   10 SER CA-Z    3    8 1.56512
   9 GLN CA-X  184 ASN CA-Y    3  529 1.08679
   9 GLN CA-Y   10 SER CA-Y    4    7 1.96475
   9 GLN CA-Y  184 ASN CA-Y    4  529 1.00158
   9 GLN CA-Y    8 GLY CA-X    4    0 1.12825
   9 GLN CA-Y    8 GLY CA-Z    4    2 1.79979
   9 GLN CA-Y    9 GLN CA-Z    4    5 1.89436
   9 GLN CA-Z    8 GLY CA-X    5    0 1.56681
   9 GLN CA-Z    9 GLN CA-Y    5    4 1.89436
  10 SER CA-Z    9 GLN CA-Z    8    5 2.41583
  11 SER CA-Z    8 GLY CA-X   11    0 2.64237
 183 GLU CA-Y  184 ASN CA-X  526  528 2.77937
 183 GLU CA-Y  184 ASN CA-Y  526  529 2.19749
 183 GLU CA-Y  185 LYS CA-X  526  531 2.76192
 183 GLU CA-Y  185 LYS CA-Y  526  532 2.86984
 183 GLU CA-Z  184 ASN CA-Z  527  530 2.25827
 183 GLU CA-Z  185 LYS CA-Y  527  532 2.13826
 183 GLU CA-Z  185 LYS CA-Z  527  533 2.11653
 184 ASN CA-X  183 GLU CA-Y  528  526 2.77937
 184 ASN CA-Y  183 GLU CA-Y  529  526 2.19749
 184 ASN CA-Z  183 GLU CA-Z  530  527 2.25827
 185 LYS CA-X  183 GLU CA-Y  531  526 2.76192
 185 LYS CA-Y  183 GLU CA-Y  532  526 2.86984
 185 LYS CA-Y  183 GLU CA-Z  532  527 2.13826
 185 LYS CA-Z  183 GLU CA-Z  533  527 2.11653
 391 GLY CA-Z  392 SER CA-Z  536  539 2.41811
 392 SER CA-Z  391 GLY CA-Z  539  536 2.41811
   8 GLY CA-X   11 SER CA-Z    0   11 2.64237
   8 GLY CA-X    9 GLN CA-X    0    3 2.71704
   8 GLY CA-Y    8 GLY CA-Z    1    2 2.87763
   8 GLY CA-Y    9 GLN CA-Y    1    4 2.7498
   8 GLY CA-Y    9 GLN CA-Z    1    5 2.63336
   8 GLY CA-Z    8 GLY CA-Y    2    1 2.87763
   9 GLN CA-X    8 GLY CA-X    3    0 2.71704
   9 GLN CA-Y    8 GLY CA-Y    4    1 2.7498
   9 GLN CA-Z   10 SER CA-Z    5    8 2.41583
   9 GLN CA-Z    8 GLY CA-Y    5    1 2.63336
  10 SER CA-Z   11 SER CA-Z    8   11 3.96815
  10 SER CA-Z    8 GLY CA-X    8    0 3.81999
  11 SER CA-Z   10 SER CA-Z   11    8 3.96815
 183 GLU CA-X  185 LYS CA-Y  525  532 3.01247
 185 LYS CA-Y  183 GLU CA-X  532  525 3.01247
   8 GLY CA-X   10 SER CA-Z    0    8 3.81999
   8 GLY CA-Z    9 GLN CA-Z    2    5 3.72774
   9 GLN CA-Z    8 GLY CA-Z    5    2 3.72774
 183 GLU CA-X  184 ASN CA-X  525  528 4.50441
 183 GLU CA-X  185 LYS CA-X  525  531 4.92856
 184 ASN CA-X  183 GLU CA-X  528  525 4.50441
 184 ASN CA-Y  185 LYS CA-X  529  531 4.99365
 184 ASN CA-Z  185 LYS CA-Z  530  533 4.93701
 185 LYS CA-X  183 GLU CA-X  531  525 4.92856
 185 LYS CA-X  184 ASN CA-Y  531  529 4.99365
 185 LYS CA-Z  184 ASN CA-Z  533  530 4.93701
 184 ASN CA-X  184 ASN CA-Y  528  529 5.03588
 184 ASN CA-Y  184 ASN CA-X  529  528 5.03588
 184 ASN CA-X  185 LYS CA-Y  528  532 6.34596
 184 ASN CA-Y  185 LYS CA-Y  529  532 6.36894
 185 LYS CA-X  185 LYS CA-Y  531  532 6.01597
 185 LYS CA-Y  184 ASN CA-X  532  528 6.34596
 185 LYS CA-Y  184 ASN CA-Y  532  529 6.36894
 185 LYS CA-Y  185 LYS CA-X  532  531 6.01597
 184 ASN CA-X  185 LYS CA-X  528  531 10.0226
 185 LYS CA-X  184 ASN CA-X  531  528 10.0226
