          >    0 @ 0 : 1axqA.pdb
          >    1 @ 0 : 1a6lA.pdb
          >    2 @ 0 : 1b0tA.pdb
          >    3 @ 0 : 1b0vA.pdb
          >    4 @ 0 : 1bc6A.pdb
          >    5 @ 0 : 1bd6A.pdb
          >    6 @ 0 : 1bqxA.pdb
          >    7 @ 0 : 1clfA.pdb
          >    8 @ 0 : 1d3wA.pdb
          >    9 @ 0 : 1durA.pdb
          >   10 @ 0 : 1f5bA.pdb
          >   11 @ 0 : 1f5cA.pdb
          >   12 @ 0 : 1fcaA.pdb
          >   13 @ 0 : 1fd2A.pdb
          >   14 @ 0 : 1fddA.pdb
          >   15 @ 0 : 1ff2A.pdb
          >   16 @ 0 : 1frhA.pdb
          >   17 @ 0 : 1friA.pdb
          >   18 @ 0 : 1frjA.pdb
          >   19 @ 0 : 1frkA.pdb
          >   20 @ 0 : 1frlA.pdb
          >   21 @ 0 : 1frmA.pdb
          >   22 @ 0 : 1frxA.pdb
          >   23 @ 0 : 1ftcA.pdb
          >   24 @ 0 : 1g3oA.pdb
          >   25 @ 0 : 1g6bA.pdb
          >   26 @ 0 : 1gaoA.pdb
          >   27 @ 0 : 1h98A.pdb
          >   28 @ 0 : 1pc4A.pdb
          >   29 @ 0 : 1pc5A.pdb
          >   30 @ 0 : 2fd2A.pdb
          >   31 @ 0 : 2v2kA.pdb
          >   32 @ 0 : 5fd1A.pdb
  16   19 >   33 @ 0.0002
  33   32 >   34 @ 0.0002
  34   17 >   35 @ 0.0004
  35   20 >   36 @ 0.0004
  36   21 >   37 @ 0.0005
   0    2 >   38 @ 0.0006
   3   25 >   39 @ 0.0008
  28   29 >   40 @ 0.0008
  38   37 >   41 @ 0.001
  41   39 >   42 @ 0.0013
   1   18 >   43 @ 0.0014
   8   15 >   44 @ 0.0014
  10   40 >   45 @ 0.0014
  42   14 >   46 @ 0.0015
  46   30 >   47 @ 0.0019
  47   43 >   48 @ 0.0023
  44   45 >   49 @ 0.0023
  49   11 >   50 @ 0.0026
  50   24 >   51 @ 0.0032
  51   23 >   52 @ 0.0039
  13   22 >   53 @ 0.0041
  48   52 >   54 @ 0.0051
  54   26 >   55 @ 0.0055
  55   53 >   56 @ 0.0088
  27   31 >   57 @ 0.0418
   9   12 >   58 @ 0.0507
   4    5 >   59 @ 0.0553
  59    6 >   60 @ 0.1116
  58   57 >   61 @ 0.1209
  60    7 >   62 @ 0.1711
  62   61 >   63 @ 0.2371
  56   63 >   64 @ 0.2671
