#Running python3 ./contact_map.py  test_inputs/2kwi.pdb 4.5
  i  ci res_i    j  cj resj n_cont
   2  A   10      0  A    8     44
   3  A   11      0  A    8      5
   3  A   11      1  A    9     40
   4  A   12      0  A    8     30
   4  A   12      1  A    9     51
   4  A   12      2  A   10     51
   5  A   13      0  A    8      3
   5  A   13      1  A    9     13
   5  A   13      2  A   10     24
   5  A   13      3  A   11     51
   6  A   14      2  A   10      5
   6  A   14      3  A   11     43
   6  A   14      4  A   12     51
   7  A   15      1  A    9      1
   7  A   15      3  A   11      2
   7  A   15      4  A   12     49
   7  A   15      5  A   13     50
   8  A   16      3  A   11      2
   8  A   16      4  A   12      1
   8  A   16      6  A   14     51
   9  A   17      7  A   15     51
  10  A   18      8  A   16     50
  11  A   19      9  A   17     51
  12  A   20     10  A   18     51
  13  A   21     11  A   19     42
  14  A   22     11  A   19      1
  14  A   22     12  A   20      2
  15  A   23     13  A   21     50
  16  A   24     13  A   21     20
  16  A   24     14  A   22     47
  17  A   25     11  A   19      2
  17  A   25     12  A   20     12
  17  A   25     13  A   21     43
  17  A   25     14  A   22     45
  17  A   25     15  A   23     48
  18  A   26     11  A   19      9
  18  A   26     13  A   21      2
  18  A   26     14  A   22      2
  18  A   26     15  A   23     12
  18  A   26     16  A   24     51
  19  A   27     10  A   18      3
  19  A   27     11  A   19     51
  19  A   27     12  A   20     50
  19  A   27     13  A   21     49
  19  A   27     14  A   22     36
  19  A   27     15  A   23     45
  19  A   27     16  A   24     43
  19  A   27     17  A   25     51
  20  A   28     11  A   19     13
  20  A   28     15  A   23      3
  20  A   28     16  A   24     18
  20  A   28     17  A   25      2
  20  A   28     18  A   26     51
  21  A   29     17  A   25      3
  21  A   29     18  A   26     51
  21  A   29     19  A   27     51
  22  A   30     11  A   19     51
  22  A   30     17  A   25      7
  22  A   30     18  A   26     49
  22  A   30     19  A   27     50
  22  A   30     20  A   28     51
  23  A   31      9  A   17      2
  23  A   31     11  A   19     51
  23  A   31     18  A   26     15
  23  A   31     19  A   27     51
  23  A   31     20  A   28     51
  23  A   31     21  A   29     51
  24  A   32     19  A   27     10
  24  A   32     20  A   28     51
  24  A   32     21  A   29     51
  24  A   32     22  A   30     51
  25  A   33     20  A   28     17
  25  A   33     21  A   29     51
  25  A   33     22  A   30     51
  25  A   33     23  A   31     51
  26  A   34     21  A   29     22
  26  A   34     22  A   30     51
  26  A   34     23  A   31     51
  26  A   34     24  A   32     51
  27  A   35     22  A   30     21
  27  A   35     23  A   31     51
  27  A   35     24  A   32     51
  27  A   35     25  A   33     51
  28  A   36     23  A   31     37
  28  A   36     24  A   32     51
  28  A   36     25  A   33     51
  28  A   36     26  A   34     51
  29  A   37     24  A   32     50
  29  A   37     25  A   33     51
  29  A   37     26  A   34     41
  29  A   37     27  A   35     51
  30  A   38     21  A   29      1
  30  A   38     24  A   32     48
  30  A   38     25  A   33     51
  30  A   38     28  A   36     51
  31  A   39     20  A   28      1
  31  A   39     21  A   29     45
  31  A   39     22  A   30      1
  31  A   39     24  A   32     37
  31  A   39     25  A   33     51
  31  A   39     28  A   36      1
  31  A   39     29  A   37     34
  32  A   40     20  A   28     43
  32  A   40     21  A   29     51
  32  A   40     24  A   32     50
  32  A   40     25  A   33     50
  32  A   40     28  A   36      2
  32  A   40     29  A   37      1
  32  A   40     30  A   38     51
  33  A   41     24  A   32     23
  33  A   41     30  A   38      5
  33  A   41     31  A   39     51
  34  A   42     20  A   28      1
  34  A   42     24  A   32      6
  34  A   42     30  A   38      1
  34  A   42     31  A   39      2
  34  A   42     32  A   40     51
  35  A   43     18  A   26      1
  35  A   43     20  A   28     45
  35  A   43     21  A   29      2
  35  A   43     23  A   31      7
  35  A   43     24  A   32     51
  35  A   43     27  A   35     16
  35  A   43     28  A   36     13
  35  A   43     31  A   39      1
  35  A   43     32  A   40     51
  35  A   43     33  A   41     45
  36  A   44     24  A   32      1
  36  A   44     32  A   40      2
  36  A   44     34  A   42     49
  37  A   45     27  A   35      1
  37  A   45     35  A   43     51
  38  A   46     19  A   27      2
  38  A   46     20  A   28     51
  38  A   46     23  A   31     20
  38  A   46     24  A   32     14
  38  A   46     35  A   43     50
  38  A   46     36  A   44     51
  39  A   47     15  A   23      1
  39  A   47     19  A   27      1
  39  A   47     36  A   44     12
  39  A   47     37  A   45     51
  40  A   48     37  A   45      5
  40  A   48     38  A   46     51
  41  A   49     24  A   32      1
  41  A   49     35  A   43     44
  41  A   49     36  A   44      1
  41  A   49     37  A   45     48
  41  A   49     38  A   46     51
  41  A   49     39  A   47     51
  42  A   50      8  A   16      6
  42  A   50     24  A   32      1
  42  A   50     27  A   35      9
  42  A   50     35  A   43     10
  42  A   50     37  A   45      1
  42  A   50     38  A   46     12
  42  A   50     39  A   47      1
  42  A   50     40  A   48     51
  43  A   51     19  A   27      2
  43  A   51     20  A   28      9
  43  A   51     23  A   31     12
  43  A   51     24  A   32     10
  43  A   51     26  A   34      1
  43  A   51     27  A   35     51
  43  A   51     28  A   36     35
  43  A   51     35  A   43     34
  43  A   51     37  A   45      7
  43  A   51     38  A   46     15
  43  A   51     41  A   49     38
  44  A   52      6  A   14     31
  44  A   52      8  A   16     13
  44  A   52     27  A   35     18
  44  A   52     42  A   50     36
  45  A   53     23  A   31      1
  45  A   53     26  A   34     51
  45  A   53     27  A   35     51
  45  A   53     28  A   36     41
  45  A   53     29  A   37     15
  45  A   53     43  A   51     51
  46  A   54      5  A   13      1
  46  A   54     27  A   35      1
  46  A   54     43  A   51      5
  46  A   54     44  A   52     49
  47  A   55      7  A   15      1
  47  A   55     26  A   34     51
  47  A   55     45  A   53     51
  48  A   56     46  A   54     40
  49  A   57      1  A    9      2
  49  A   57      7  A   15     10
  49  A   57     47  A   55     50
  50  A   58     48  A   56     51
  51  A   59      1  A    9      1
  51  A   59      3  A   11      1
  51  A   59     48  A   56     51
  51  A   59     49  A   57     51
  52  A   60      0  A    8      9
  52  A   60      1  A    9     13
  52  A   60      2  A   10      9
  52  A   60      3  A   11      9
  52  A   60      4  A   12     21
  52  A   60      5  A   13     49
  52  A   60      6  A   14      2
  52  A   60      7  A   15      6
  52  A   60     47  A   55     48
  52  A   60     48  A   56     51
  52  A   60     49  A   57     48
  52  A   60     50  A   58     38
  53  A   61      3  A   11      1
  53  A   61      5  A   13     49
  53  A   61     46  A   54     51
  53  A   61     47  A   55     51
  53  A   61     48  A   56     51
  53  A   61     49  A   57     25
  53  A   61     51  A   59     49
  54  A   62      0  A    8      2
  54  A   62      1  A    9      2
  54  A   62      4  A   12     45
  54  A   62      5  A   13     51
  54  A   62      6  A   14     49
  54  A   62      7  A   15     51
  54  A   62     45  A   53     51
  54  A   62     46  A   54     51
  54  A   62     47  A   55     51
  54  A   62     48  A   56     51
  54  A   62     49  A   57     49
  54  A   62     52  A   60     51
  55  A   63      5  A   13     51
  55  A   63      6  A   14     51
  55  A   63      7  A   15     51
  55  A   63      8  A   16      3
  55  A   63     44  A   52     51
  55  A   63     45  A   53     51
  55  A   63     46  A   54     51
  55  A   63     47  A   55     51
  55  A   63     53  A   61     50
  56  A   64      6  A   14     45
  56  A   64      7  A   15     51
  56  A   64      8  A   16     38
  56  A   64      9  A   17     51
  56  A   64     26  A   34     51
  56  A   64     27  A   35      7
  56  A   64     43  A   51     39
  56  A   64     44  A   52     51
  56  A   64     45  A   53     51
  56  A   64     46  A   54     51
  56  A   64     47  A   55     51
  56  A   64     54  A   62     51
  57  A   65      6  A   14     39
  57  A   65      7  A   15     51
  57  A   65      8  A   16     51
  57  A   65      9  A   17     51
  57  A   65     42  A   50     35
  57  A   65     43  A   51     43
  57  A   65     44  A   52     50
  57  A   65     45  A   53     46
  57  A   65     55  A   63     51
  58  A   66      7  A   15      1
  58  A   66      8  A   16      9
  58  A   66      9  A   17     51
  58  A   66     10  A   18     34
  58  A   66     11  A   19     46
  58  A   66     23  A   31     51
  58  A   66     24  A   32      1
  58  A   66     26  A   34     51
  58  A   66     27  A   35     41
  58  A   66     41  A   49     20
  58  A   66     42  A   50     51
  58  A   66     43  A   51     51
  58  A   66     44  A   52     45
  58  A   66     45  A   53     49
  58  A   66     56  A   64     51
  59  A   67      8  A   16      7
  59  A   67      9  A   17     51
  59  A   67     10  A   18     51
  59  A   67     11  A   19     51
  59  A   67     19  A   27     18
  59  A   67     23  A   31      5
  59  A   67     38  A   46      1
  59  A   67     39  A   47     16
  59  A   67     40  A   48     48
  59  A   67     41  A   49     23
  59  A   67     42  A   50     51
  59  A   67     43  A   51     20
  59  A   67     57  A   65     51
  60  A   68     10  A   18      8
  60  A   68     11  A   19     50
  60  A   68     12  A   20      1
  60  A   68     13  A   21      1
  60  A   68     15  A   23      1
  60  A   68     16  A   24      1
  60  A   68     18  A   26      2
  60  A   68     19  A   27     51
  60  A   68     20  A   28     50
  60  A   68     23  A   31     46
  60  A   68     24  A   32      1
  60  A   68     35  A   43      2
  60  A   68     37  A   45      1
  60  A   68     38  A   46     51
  60  A   68     39  A   47     41
  60  A   68     40  A   48     16
  60  A   68     41  A   49     43
  60  A   68     42  A   50     45
  60  A   68     43  A   51     11
  60  A   68     58  A   66     51
  61  A   69     10  A   18     51
  61  A   69     11  A   19     51
  61  A   69     12  A   20     49
  61  A   69     13  A   21     37
  61  A   69     14  A   22      1
  61  A   69     15  A   23     17
  61  A   69     16  A   24      1
  61  A   69     19  A   27     51
  61  A   69     20  A   28      2
  61  A   69     38  A   46     17
  61  A   69     39  A   47     30
  61  A   69     40  A   48     12
  61  A   69     59  A   67     51
  62  A   70     13  A   21      4
  62  A   70     14  A   22     14
  62  A   70     15  A   23     19
  62  A   70     19  A   27     43
  62  A   70     38  A   46     26
  62  A   70     39  A   47     50
  62  A   70     40  A   48      6
  62  A   70     60  A   68     49
  63  A   71     13  A   21     41
  63  A   71     14  A   22     47
  63  A   71     15  A   23     44
  63  A   71     16  A   24     11
  63  A   71     19  A   27     34
  63  A   71     38  A   46      1
  63  A   71     39  A   47      1
  63  A   71     61  A   69     51
  64  A   72     14  A   22     12
  64  A   72     15  A   23     17
  64  A   72     19  A   27      1
  64  A   72     39  A   47     25
  64  A   72     61  A   69      3
  64  A   72     62  A   70     51
  65  A   73     62  A   70      1
  65  A   73     63  A   71      4
  66  A   74     64  A   72     51
  67  A   75     39  A   47     50
  67  A   75     62  A   70     51
  67  A   75     63  A   71      3
  67  A   75     64  A   72     51
  67  A   75     65  A   73     51
  68  A   76     62  A   70      2
  68  A   76     63  A   71      3
  68  A   76     64  A   72     28
  68  A   76     65  A   73     46
  68  A   76     66  A   74     51
  69  A   77     66  A   74     40
  69  A   77     67  A   75     51
  70  A   78     38  A   46      8
  70  A   78     39  A   47     51
  70  A   78     40  A   48     49
  70  A   78     59  A   67     51
  70  A   78     60  A   68     36
  70  A   78     61  A   69     51
  70  A   78     62  A   70     51
  70  A   78     64  A   72     40
  70  A   78     67  A   75     51
  70  A   78     68  A   76     51
  71  A   79     10  A   18      4
  71  A   79     11  A   19      1
  71  A   79     12  A   20     20
  71  A   79     13  A   21     16
  71  A   79     14  A   22     16
  71  A   79     15  A   23      1
  71  A   79     59  A   67      6
  71  A   79     60  A   68      1
  71  A   79     61  A   69     50
  71  A   79     62  A   70     47
  71  A   79     63  A   71     42
  71  A   79     64  A   72     43
  71  A   79     65  A   73     35
  71  A   79     66  A   74      2
  71  A   79     67  A   75     48
  71  A   79     68  A   76     51
  71  A   79     69  A   77     51
  72  A   80     65  A   73      4
  72  A   80     67  A   75     18
  72  A   80     68  A   76     51
  72  A   80     69  A   77     50
  72  A   80     70  A   78     51
  73  A   81     67  A   75      1
  73  A   81     68  A   76     51
  73  A   81     69  A   77     51
  73  A   81     70  A   78     51
  73  A   81     71  A   79     51
  74  A   82     10  A   18     51
  74  A   82     39  A   47     12
  74  A   82     40  A   48     40
  74  A   82     41  A   49      2
  74  A   82     42  A   50      7
  74  A   82     59  A   67     51
  74  A   82     60  A   68      1
  74  A   82     61  A   69     42
  74  A   82     68  A   76     31
  74  A   82     69  A   77     51
  74  A   82     70  A   78     51
  74  A   82     71  A   79     51
  74  A   82     72  A   80     51
  75  A   83     10  A   18     51
  75  A   83     11  A   19      6
  75  A   83     12  A   20     51
  75  A   83     13  A   21     13
  75  A   83     59  A   67     23
  75  A   83     61  A   69     50
  75  A   83     70  A   78     21
  75  A   83     71  A   79     51
  75  A   83     72  A   80     51
  75  A   83     73  A   81     51
  76  A   84     10  A   18      6
  76  A   84     71  A   79      4
  76  A   84     72  A   80     43
  76  A   84     73  A   81     48
  76  A   84     74  A   82     51
  77  A   85      8  A   16     51
  77  A   85     10  A   18     15
  77  A   85     73  A   81     22
  77  A   85     74  A   82     51
  77  A   85     75  A   83     51
  78  A   86      8  A   16     51
  78  A   86      9  A   17      1
  78  A   86     10  A   18     51
  78  A   86     59  A   67      1
  78  A   86     74  A   82     46
  78  A   86     75  A   83     50
  78  A   86     76  A   84     51
  79  A   87      3  A   11      4
  79  A   87      4  A   12      1
  79  A   87      6  A   14     26
  79  A   87      7  A   15     41
  79  A   87      8  A   16     51
  79  A   87      9  A   17     27
  79  A   87     10  A   18     39
  79  A   87     76  A   84      1
  79  A   87     77  A   85     47
  80  A   88      8  A   16     51
  80  A   88      9  A   17     51
  80  A   88     10  A   18     51
  80  A   88     78  A   86     51
  81  A   89      9  A   17     50
  81  A   89     10  A   18     51
  81  A   89     11  A   19     20
  81  A   89     12  A   20     51
  81  A   89     74  A   82      2
  81  A   89     75  A   83     51
  81  A   89     76  A   84     15
  81  A   89     78  A   86     51
  81  A   89     79  A   87     51
  82  A   90      9  A   17     51
  82  A   90     10  A   18     51
  82  A   90     11  A   19     51
  82  A   90     12  A   20     51
  82  A   90     19  A   27      1
  82  A   90     22  A   30      2
  82  A   90     23  A   31      2
  82  A   90     58  A   66     11
  82  A   90     80  A   88     51
  83  A   91     11  A   19      2
  83  A   91     12  A   20     51
  83  A   91     13  A   21      7
  83  A   91     19  A   27      1
  83  A   91     81  A   89     51
  84  A   92     11  A   19     51
  84  A   92     12  A   20     51
  84  A   92     13  A   21     47
  84  A   92     14  A   22     18
  84  A   92     16  A   24      9
  84  A   92     17  A   25     51
  84  A   92     18  A   26     30
  84  A   92     19  A   27     51
  84  A   92     22  A   30     51
  84  A   92     82  A   90     51
  85  A   93     13  A   21      3
  85  A   93     14  A   22      5
  85  A   93     16  A   24      1
  85  A   93     17  A   25     51
  85  A   93     19  A   27      1
  85  A   93     83  A   91     51
  86  A   94     16  A   24      8
  86  A   94     17  A   25     51
  86  A   94     18  A   26      3
  86  A   94     84  A   92      2
  87  A   95     85  A   93     51
  88  A   96     17  A   25      1
  88  A   96     86  A   94     51
  89  A   97     14  A   22     11
  89  A   97     15  A   23      3
  89  A   97     16  A   24     10
  89  A   97     17  A   25     41
  89  A   97     18  A   26      1
  89  A   97     85  A   93     49
  89  A   97     86  A   94     51
  89  A   97     87  A   95     51
  90  A   98     85  A   93      5
  90  A   98     86  A   94      9
  90  A   98     87  A   95      1
  90  A   98     88  A   96     51
  91  A   99     14  A   22     14
  91  A   99     15  A   23      3
  91  A   99     16  A   24      1
  91  A   99     17  A   25      1
  91  A   99     89  A   97     51
  92  A  100     13  A   21      5
  92  A  100     14  A   22     38
  92  A  100     15  A   23      5
  92  A  100     16  A   24      3
  92  A  100     17  A   25     51
  92  A  100     84  A   92     38
  92  A  100     85  A   93     51
  92  A  100     86  A   94     51
  92  A  100     89  A   97     51
  92  A  100     90  A   98     51
  93  A  101     85  A   93     51
  93  A  101     86  A   94     28
  93  A  101     87  A   95     21
  93  A  101     89  A   97     51
  93  A  101     90  A   98     51
  93  A  101     91  A   99     51
  94  A  102     89  A   97      1
  94  A  102     90  A   98     51
  94  A  102     91  A   99     51
  94  A  102     92  A  100     51
  95  A  103     13  A   21      2
  95  A  103     14  A   22     40
  95  A  103     83  A   91      3
  95  A  103     90  A   98     40
  95  A  103     91  A   99     51
  95  A  103     92  A  100     51
  95  A  103     93  A  101     51
  96  A  104     12  A   20      4
  96  A  104     13  A   21      1
  96  A  104     83  A   91     51
  96  A  104     84  A   92     11
  96  A  104     85  A   93     51
  96  A  104     91  A   99      8
  96  A  104     92  A  100     51
  96  A  104     93  A  101     51
  96  A  104     94  A  102     51
  97  A  105     83  A   91      7
  97  A  105     92  A  100      1
  97  A  105     93  A  101     51
  97  A  105     94  A  102     51
  97  A  105     95  A  103     51
  98  A  106     14  A   22      1
  98  A  106     71  A   79     17
  98  A  106     94  A  102     51
  98  A  106     95  A  103     51
  98  A  106     96  A  104     51
  99  A  107     12  A   20     51
  99  A  107     13  A   21     51
  99  A  107     14  A   22     51
  99  A  107     15  A   23      1
  99  A  107     17  A   25     10
  99  A  107     63  A   71      3
  99  A  107     71  A   79     27
  99  A  107     75  A   83     26
  99  A  107     83  A   91     51
  99  A  107     84  A   92     43
  99  A  107     85  A   93     44
  99  A  107     92  A  100     51
  99  A  107     94  A  102      1
  99  A  107     95  A  103     51
  99  A  107     96  A  104     51
  99  A  107     97  A  105     51
 100  A  108     83  A   91     51
 100  A  108     95  A  103     42
 100  A  108     96  A  104     51
 100  A  108     97  A  105     51
 100  A  108     98  A  106     51
 101  A  109     96  A  104     36
 101  A  109     97  A  105     51
 101  A  109     98  A  106     51
 101  A  109     99  A  107     51
 102  A  110     71  A   79     43
 102  A  110     72  A   80     41
 102  A  110     75  A   83     51
 102  A  110     97  A  105     46
 102  A  110     98  A  106     51
 102  A  110     99  A  107     51
 102  A  110    100  A  108     51
 103  A  111     12  A   20     51
 103  A  111     75  A   83     51
 103  A  111     81  A   89     51
 103  A  111     83  A   91     50
 103  A  111     98  A  106     50
 103  A  111     99  A  107     51
 103  A  111    100  A  108     51
 103  A  111    101  A  109     51
 104  A  112     99  A  107     29
 104  A  112    100  A  108     51
 104  A  112    101  A  109     51
 104  A  112    102  A  110     51
 105  A  113     71  A   79      2
 105  A  113     72  A   80     12
 105  A  113     75  A   83      1
 105  A  113     76  A   84      1
 105  A  113     98  A  106      4
 105  A  113    100  A  108     35
 105  A  113    101  A  109     51
 105  A  113    102  A  110     51
 105  A  113    103  A  111     51
 106  A  114     71  A   79     11
 106  A  114     72  A   80     51
 106  A  114     73  A   81     17
 106  A  114     75  A   83     51
 106  A  114     76  A   84     51
 106  A  114     81  A   89      5
 106  A  114    101  A  109     12
 106  A  114    102  A  110     51
 106  A  114    103  A  111     51
 106  A  114    104  A  112     51
 107  A  115     10  A   18      3
 107  A  115     75  A   83     51
 107  A  115     76  A   84     51
 107  A  115     77  A   85     49
 107  A  115     78  A   86     51
 107  A  115     79  A   87     51
 107  A  115     80  A   88      2
 107  A  115     81  A   89     51
 107  A  115    102  A  110     28
 107  A  115    103  A  111     51
 107  A  115    104  A  112     51
 107  A  115    105  A  113     51
 108  A  116     76  A   84      5
 108  A  116    103  A  111     31
 108  A  116    104  A  112     51
 108  A  116    105  A  113     30
 108  A  116    106  A  114     35
 109  A  117     76  A   84     12
 109  A  117    104  A  112      3
 109  A  117    106  A  114      4
 109  A  117    107  A  115     51
 110  A  118     75  A   83      1
 110  A  118     76  A   84     36
 110  A  118     77  A   85      1
 110  A  118     78  A   86     23
 110  A  118     79  A   87     17
 110  A  118     81  A   89      4
 110  A  118    100  A  108      1
 110  A  118    104  A  112      1
 110  A  118    106  A  114      4
 110  A  118    107  A  115     50
 110  A  118    108  A  116     51
 111  A  119     79  A   87      8
 111  A  119    107  A  115      7
 111  A  119    108  A  116      6
 111  A  119    109  A  117     22
 112  A  120     78  A   86      1
 112  A  120     79  A   87     32
 112  A  120     81  A   89      2
 112  A  120    107  A  115     11
 112  A  120    109  A  117      2
 112  A  120    110  A  118     50
 113  A  121     78  A   86      2
 113  A  121     79  A   87     51
 113  A  121     80  A   88     27
 113  A  121     81  A   89     51
 113  A  121    103  A  111     51
 113  A  121    104  A  112     51
 113  A  121    107  A  115     51
 113  A  121    108  A  116     51
 113  A  121    109  A  117      7
 113  A  121    110  A  118     51
 113  A  121    111  A  119     24
 114  A  122     79  A   87     51
 114  A  122     80  A   88     51
 114  A  122     81  A   89     51
 114  A  122    107  A  115     13
 114  A  122    110  A  118      1
 114  A  122    111  A  119      1
 114  A  122    112  A  120     51
 115  A  123     12  A   20      3
 115  A  123     80  A   88     10
 115  A  123     81  A   89     51
 115  A  123     82  A   90     32
 115  A  123     83  A   91     51
 115  A  123     99  A  107      2
 115  A  123    100  A  108     51
 115  A  123    103  A  111     51
 115  A  123    104  A  112     46
 115  A  123    110  A  118      1
 115  A  123    112  A  120      1
 115  A  123    113  A  121     51
 116  A  124     81  A   89     51
 116  A  124     82  A   90     51
 116  A  124     83  A   91     51
 116  A  124    114  A  122     49
 117  A  125     82  A   90     14
 117  A  125     83  A   91     51
 117  A  125     84  A   92     24
 117  A  125     85  A   93     51
 117  A  125     93  A  101     11
 117  A  125     96  A  104     51
 117  A  125    115  A  123     50
 118  A  126     11  A   19     34
 118  A  126     22  A   30     51
 118  A  126     82  A   90     51
 118  A  126     83  A   91     51
 118  A  126     84  A   92     51
 118  A  126     85  A   93     51
 118  A  126    116  A  124     51
 119  A  127     84  A   92     33
 119  A  127     85  A   93     51
 119  A  127     86  A   94     37
 119  A  127     87  A   95     48
 119  A  127    117  A  125     51
 120  A  128     11  A   19      1
 120  A  128     17  A   25     50
 120  A  128     18  A   26     48
 120  A  128     19  A   27     17
 120  A  128     21  A   29     20
 120  A  128     22  A   30     51
 120  A  128     84  A   92     51
 120  A  128     85  A   93     51
 120  A  128     86  A   94     51
 120  A  128     87  A   95     51
 120  A  128     88  A   96      4
 120  A  128     89  A   97      1
 120  A  128    118  A  126     51
 121  A  129     16  A   24     11
 121  A  129     17  A   25     43
 121  A  129     18  A   26     37
 121  A  129     21  A   29      3
 121  A  129     22  A   30     14
 121  A  129     85  A   93      4
 121  A  129     86  A   94     51
 121  A  129     87  A   95     51
 121  A  129     88  A   96     32
 121  A  129     89  A   97     13
 121  A  129    119  A  127     38
 122  A  130     86  A   94      1
 122  A  130     87  A   95     51
 122  A  130     88  A   96      1
 122  A  130    119  A  127     50
 122  A  130    120  A  128     51
 123  A  131     87  A   95     16
 123  A  131    120  A  128      2
 123  A  131    121  A  129     51
 124  A  132     86  A   94     43
 124  A  132     87  A   95     51
 124  A  132     88  A   96     51
 124  A  132     89  A   97      1
 124  A  132    120  A  128      7
 124  A  132    121  A  129     51
 124  A  132    122  A  130     51
 125  A  133     87  A   95     46
 125  A  133     88  A   96      1
 125  A  133    121  A  129     31
 125  A  133    122  A  130     51
 125  A  133    123  A  131     51
 126  A  134    123  A  131     13
 126  A  134    124  A  132     51
 127  A  135     87  A   95     31
 127  A  135     88  A   96     51
 127  A  135    121  A  129      1
 127  A  135    124  A  132     51
 127  A  135    125  A  133     51
 128  A  136     87  A   95     51
 128  A  136     88  A   96     51
 128  A  136    122  A  130     20
 128  A  136    124  A  132     50
 128  A  136    125  A  133     51
 128  A  136    126  A  134     51
 129  A  137     87  A   95     51
 129  A  137     88  A   96     51
 129  A  137     89  A   97     43
 129  A  137     90  A   98     48
 129  A  137     91  A   99      5
 129  A  137    124  A  132      4
 129  A  137    126  A  134      2
 129  A  137    127  A  135     51
 130  A  138     85  A   93     51
 130  A  138     86  A   94     51
 130  A  138     87  A   95     51
 130  A  138     88  A   96     50
 130  A  138     89  A   97     36
 130  A  138     90  A   98     51
 130  A  138     93  A  101     51
 130  A  138    128  A  136     51
 131  A  139     90  A   98     26
 131  A  139    128  A  136     51
 131  A  139    129  A  137     51
 132  A  140     85  A   93     31
 132  A  140     87  A   95     51
 132  A  140     93  A  101      1
 132  A  140    119  A  127      7
 132  A  140    122  A  130      6
 132  A  140    128  A  136     51
 132  A  140    130  A  138     51
 133  A  141    128  A  136     14
 133  A  141    131  A  139     51
 134  A  142     90  A   98     15
 134  A  142     93  A  101     51
 134  A  142    130  A  138     50
 134  A  142    131  A  139     51
 134  A  142    132  A  140     51
 135  A  143     85  A   93     51
 135  A  143     87  A   95      5
 135  A  143     93  A  101     51
 135  A  143    117  A  125     28
 135  A  143    130  A  138     51
 135  A  143    131  A  139     51
 135  A  143    132  A  140     51
 135  A  143    133  A  141     51
 136  A  144    131  A  139      8
 136  A  144    132  A  140     51
 136  A  144    133  A  141     51
 136  A  144    134  A  142     51
 137  A  145     93  A  101      1
 137  A  145    132  A  140     50
 137  A  145    133  A  141     51
 137  A  145    134  A  142     51
 137  A  145    135  A  143     51
 138  A  146     93  A  101     51
 138  A  146     94  A  102      1
 138  A  146     96  A  104     10
 138  A  146     97  A  105     10
 138  A  146    117  A  125     25
 138  A  146    133  A  141      7
 138  A  146    134  A  142     51
 138  A  146    135  A  143     51
 138  A  146    136  A  144     51
 139  A  147    117  A  125     51
 139  A  147    134  A  142     14
 139  A  147    135  A  143     51
 139  A  147    136  A  144     51
 139  A  147    137  A  145     51
 140  A  148    135  A  143      8
 140  A  148    136  A  144     51
 140  A  148    137  A  145     51
 140  A  148    138  A  146     51
 141  A  149    100  A  108      9
 141  A  149    136  A  144     35
 141  A  149    137  A  145     51
 141  A  149    138  A  146     51
 141  A  149    139  A  147     51
 142  A  150     83  A   91     51
 142  A  150     93  A  101      1
 142  A  150     96  A  104     51
 142  A  150     97  A  105     51
 142  A  150    100  A  108     51
 142  A  150    115  A  123     50
 142  A  150    117  A  125     51
 142  A  150    137  A  145     39
 142  A  150    138  A  146     51
 142  A  150    139  A  147     51
 142  A  150    140  A  148     51
 143  A  151    138  A  146     44
 143  A  151    139  A  147     51
 143  A  151    140  A  148     51
 143  A  151    141  A  149     51
 144  A  152     83  A   91     18
 144  A  152    114  A  122     13
 144  A  152    115  A  123     51
 144  A  152    116  A  124     51
 144  A  152    117  A  125     51
 144  A  152    138  A  146     45
 144  A  152    139  A  147     51
 144  A  152    140  A  148     51
 144  A  152    142  A  150     51
 145  A  153    114  A  122      2
 145  A  153    115  A  123     47
 145  A  153    116  A  124     51
 145  A  153    117  A  125     51
 145  A  153    139  A  147     51
 145  A  153    143  A  151      1
 146  A  154     85  A   93     51
 146  A  154     87  A   95     50
 146  A  154     93  A  101      3
 146  A  154    116  A  124     51
 146  A  154    117  A  125     51
 146  A  154    118  A  126     48
 146  A  154    119  A  127     51
 146  A  154    122  A  130      5
 146  A  154    128  A  136      3
 146  A  154    130  A  138      3
 146  A  154    132  A  140     51
 146  A  154    135  A  143     50
 146  A  154    136  A  144     51
 146  A  154    139  A  147     51
 146  A  154    140  A  148      2
 146  A  154    144  A  152     51
 147  A  155    116  A  124     51
 147  A  155    117  A  125     51
 147  A  155    118  A  126     51
 147  A  155    119  A  127     51
 147  A  155    136  A  144      1
 147  A  155    145  A  153     51
 148  A  156     87  A   95     30
 148  A  156    118  A  126     30
 148  A  156    119  A  127     51
 148  A  156    120  A  128     17
 148  A  156    122  A  130     51
 148  A  156    128  A  136     19
 148  A  156    132  A  140     51
 148  A  156    136  A  144     10
 148  A  156    146  A  154     51
 149  A  157     22  A   30     51
 149  A  157     84  A   92      3
 149  A  157    118  A  126     51
 149  A  157    119  A  127     51
 149  A  157    120  A  128     51
 149  A  157    121  A  129     51
 149  A  157    122  A  130     51
 149  A  157    123  A  131     18
 149  A  157    147  A  155     51
 150  A  158     22  A   30     22
 150  A  158     25  A   33      2
 150  A  158    119  A  127      2
 150  A  158    120  A  128     40
 150  A  158    121  A  129     51
 150  A  158    122  A  130     51
 150  A  158    123  A  131     48
 150  A  158    148  A  156     38
 151  A  159     18  A   26      3
 151  A  159     21  A   29     51
 151  A  159     22  A   30     51
 151  A  159     25  A   33     50
 151  A  159     31  A   39     51
 151  A  159     32  A   40      2
 151  A  159    120  A  128     43
 151  A  159    121  A  129     51
 151  A  159    122  A  130     17
 151  A  159    123  A  131     24
 151  A  159    149  A  157     47
 152  A  160     21  A   29      1
 152  A  160     25  A   33     21
 152  A  160     31  A   39     44
 152  A  160     32  A   40      1
 152  A  160     34  A   42      1
 152  A  160     35  A   43      1
 152  A  160    120  A  128      1
 152  A  160    121  A  129      7
 152  A  160    122  A  130      1
 152  A  160    123  A  131     50
 152  A  160    124  A  132      1
 152  A  160    150  A  158     51
 153  A  161     25  A   33      4
 153  A  161    123  A  131     31
 153  A  161    150  A  158     51
 153  A  161    151  A  159     51
 154  A  162     25  A   33     51
 154  A  162     26  A   34      7
 154  A  162     29  A   37     46
 154  A  162     30  A   38     34
 154  A  162     31  A   39     29
 154  A  162     32  A   40      1
 154  A  162    123  A  131      4
 154  A  162    150  A  158     51
 154  A  162    151  A  159     51
 154  A  162    152  A  160     51
 155  A  163     25  A   33      1
 155  A  163    148  A  156     42
 155  A  163    149  A  157     51
 155  A  163    150  A  158     51
 155  A  163    151  A  159     50
 155  A  163    152  A  160      3
 155  A  163    153  A  161     51
 156  A  164     22  A   30      1
 156  A  164    147  A  155     51
 156  A  164    148  A  156     50
 156  A  164    149  A  157     51
 156  A  164    150  A  158     48
 156  A  164    154  A  162     48
 157  A  165     11  A   19      1
 157  A  165     21  A   29      2
 157  A  165     22  A   30     51
 157  A  165     23  A   31      1
 157  A  165     25  A   33     51
 157  A  165     26  A   34     51
 157  A  165    118  A  126      2
 157  A  165    120  A  128      6
 157  A  165    149  A  157     51
 157  A  165    150  A  158     51
 157  A  165    151  A  159     51
 157  A  165    154  A  162     51
 157  A  165    155  A  163     51
 158  A  166     25  A   33      2
 158  A  166     26  A   34     51
 158  A  166     29  A   37      1
 158  A  166    154  A  162     21
 158  A  166    155  A  163      4
 158  A  166    156  A  164     51
 159  A  167    116  A  124     14
 159  A  167    145  A  153     21
 159  A  167    147  A  155     51
 159  A  167    149  A  157     15
 159  A  167    156  A  164     51
 159  A  167    157  A  165     51
 160  A  168     11  A   19     27
 160  A  168     22  A   30     46
 160  A  168     82  A   90     51
 160  A  168     84  A   92      1
 160  A  168    116  A  124     51
 160  A  168    118  A  126     51
 160  A  168    145  A  153     10
 160  A  168    147  A  155     51
 160  A  168    149  A  157     51
 160  A  168    156  A  164     51
 160  A  168    157  A  165     51
 160  A  168    158  A  166     51
 161  A  169      9  A   17     51
 161  A  169     11  A   19     51
 161  A  169     19  A   27      2
 161  A  169     22  A   30     51
 161  A  169     23  A   31     51
 161  A  169     25  A   33      7
 161  A  169     26  A   34     51
 161  A  169     45  A   53      1
 161  A  169     56  A   64     51
 161  A  169     58  A   66     51
 161  A  169     82  A   90     51
 161  A  169    116  A  124      8
 161  A  169    156  A  164      2
 161  A  169    157  A  165     51
 161  A  169    158  A  166     51
 161  A  169    159  A  167     51
 162  A  170     26  A   34     51
 162  A  170     45  A   53      1
 162  A  170     47  A   55     51
 162  A  170     48  A   56     12
 162  A  170     49  A   57     51
 162  A  170     54  A   62      1
 162  A  170     56  A   64      1
 162  A  170    154  A  162      1
 162  A  170    158  A  166     51
 162  A  170    159  A  167     51
 162  A  170    160  A  168     51
 163  A  171    116  A  124     51
 163  A  171    145  A  153     51
 163  A  171    147  A  155     22
 163  A  171    158  A  166     47
 163  A  171    159  A  167     51
 163  A  171    160  A  168     51
 163  A  171    161  A  169     51
 164  A  172      7  A   15      4
 164  A  172      8  A   16      3
 164  A  172      9  A   17     51
 164  A  172     10  A   18     11
 164  A  172     56  A   64      3
 164  A  172     79  A   87      1
 164  A  172     80  A   88     51
 164  A  172     81  A   89     51
 164  A  172     82  A   90     51
 164  A  172    114  A  122     51
 164  A  172    115  A  123     51
 164  A  172    116  A  124     51
 164  A  172    145  A  153     32
 164  A  172    159  A  167     51
 164  A  172    160  A  168     51
 164  A  172    161  A  169     51
 164  A  172    162  A  170     51
 165  A  173      7  A   15     51
 165  A  173      9  A   17     47
 165  A  173     26  A   34     51
 165  A  173     47  A   55     51
 165  A  173     49  A   57     43
 165  A  173     54  A   62     40
 165  A  173     55  A   63      1
 165  A  173     56  A   64     51
 165  A  173     79  A   87      1
 165  A  173    160  A  168     50
 165  A  173    161  A  169     51
 165  A  173    162  A  170     51
 165  A  173    163  A  171     51
 166  A  174      7  A   15     47
 166  A  174     49  A   57     51
 166  A  174     50  A   58     28
 166  A  174     51  A   59      2
 166  A  174     52  A   60      3
 166  A  174     54  A   62      4
 166  A  174    161  A  169     39
 166  A  174    162  A  170     51
 166  A  174    163  A  171     51
 166  A  174    164  A  172     51
 167  A  175    114  A  122     51
 167  A  175    115  A  123      7
 167  A  175    116  A  124      6
 167  A  175    144  A  152      8
 167  A  175    145  A  153     42
 167  A  175    162  A  170     20
 167  A  175    163  A  171     51
 167  A  175    164  A  172     51
 167  A  175    165  A  173     51
 168  A  176      3  A   11      6
 168  A  176      4  A   12     38
 168  A  176      6  A   14     30
 168  A  176      7  A   15     51
 168  A  176      8  A   16     50
 168  A  176      9  A   17     51
 168  A  176     56  A   64      3
 168  A  176     79  A   87     51
 168  A  176     80  A   88     51
 168  A  176    112  A  120      2
 168  A  176    114  A  122     51
 168  A  176    163  A  171      4
 168  A  176    164  A  172     51
 168  A  176    165  A  173     51
 168  A  176    166  A  174     51
 169  A  177      0  A    8      3
 169  A  177      1  A    9     10
 169  A  177      3  A   11      3
 169  A  177      4  A   12     51
 169  A  177      5  A   13     13
 169  A  177      7  A   15     51
 169  A  177     48  A   56      1
 169  A  177     49  A   57     32
 169  A  177     50  A   58     10
 169  A  177     51  A   59      6
 169  A  177     52  A   60     25
 169  A  177     54  A   62     24
 169  A  177    164  A  172      8
 169  A  177    165  A  173     51
 169  A  177    166  A  174     51
 169  A  177    167  A  175     51
 170  A  178      4  A   12      5
 170  A  178    111  A  119      1
 170  A  178    112  A  120      1
 170  A  178    165  A  173      5
 170  A  178    166  A  174     51
 170  A  178    167  A  175     51
 170  A  178    168  A  176     51
 171  A  179     79  A   87     17
 171  A  179     80  A   88      1
 171  A  179    110  A  118      2
 171  A  179    111  A  119     48
 171  A  179    112  A  120     51
 171  A  179    113  A  121     27
 171  A  179    114  A  122     51
 171  A  179    164  A  172      2
 171  A  179    166  A  174     12
 171  A  179    167  A  175     51
 171  A  179    168  A  176     51
 171  A  179    169  A  177     51
 172  A  180      0  A    8      7
 172  A  180      1  A    9     13
 172  A  180      2  A   10     14
 172  A  180      3  A   11     36
 172  A  180      4  A   12     51
 172  A  180      6  A   14     30
 172  A  180      7  A   15     26
 172  A  180      8  A   16     20
 172  A  180     79  A   87     48
 172  A  180    110  A  118      1
 172  A  180    111  A  119     22
 172  A  180    112  A  120      6
 172  A  180    167  A  175     36
 172  A  180    168  A  176     51
 172  A  180    169  A  177     51
 172  A  180    170  A  178     51
 173  A  181      0  A    8     26
 173  A  181      1  A    9     39
 173  A  181      2  A   10     12
 173  A  181      3  A   11      2
 173  A  181      4  A   12     51
 173  A  181    168  A  176     43
 173  A  181    169  A  177     51
 173  A  181    170  A  178     51
 173  A  181    171  A  179     51
 174  A  182      0  A    8      4
 174  A  182    111  A  119     22
 174  A  182    112  A  120     13
 174  A  182    169  A  177     45
 174  A  182    170  A  178     51
 174  A  182    171  A  179     51
 174  A  182    172  A  180     51
 175  A  183      0  A    8      2
 175  A  183    111  A  119      5
 175  A  183    112  A  120      3
 175  A  183    170  A  178     20
 175  A  183    171  A  179      7
 175  A  183    172  A  180      4
 175  A  183    173  A  181     51
 176  A  184      0  A    8      5
 176  A  184      1  A    9      3
 176  A  184      4  A   12      1
 176  A  184    111  A  119      1
 176  A  184    112  A  120      1
 176  A  184    169  A  177      1
 176  A  184    170  A  178     11
 176  A  184    171  A  179      3
 176  A  184    172  A  180      3
 176  A  184    173  A  181     28
 176  A  184    174  A  182     47
 177  A  185      1  A    9      1
 177  A  185    112  A  120      3
 177  A  185    167  A  175      1
 177  A  185    170  A  178      6
 177  A  185    171  A  179      1
 177  A  185    173  A  181      6
 177  A  185    174  A  182     13
 177  A  185    175  A  183     51
 178  A  500     14  A   22      2
 178  A  500     15  A   23     35
 178  A  500     16  A   24     48
 178  A  500     17  A   25     43
 178  A  500     18  A   26     51
 178  A  500     19  A   27     40
 178  A  500     20  A   28     51
 178  A  500     21  A   29     51
 178  A  500     22  A   30     29
 178  A  500     25  A   33      2
 178  A  500     31  A   39     47
 178  A  500     32  A   40     44
 178  A  500     33  A   41      4
 178  A  500     34  A   42      3
 178  A  500     35  A   43     15
 178  A  500     36  A   44     45
 178  A  500     37  A   45     15
 178  A  500     38  A   46     51
 178  A  500     39  A   47      6
 178  A  500     60  A   68      1
 178  A  500     62  A   70      5
 178  A  500     63  A   71      6
 178  A  500    120  A  128     42
 178  A  500    121  A  129     51
 178  A  500    122  A  130     26
 178  A  500    123  A  131     51
 178  A  500    124  A  132     13
 178  A  500    149  A  157     15
 178  A  500    150  A  158     45
 178  A  500    151  A  159     51
 178  A  500    152  A  160     51
 178  A  500    153  A  161      4
 179  A  501     15  A   23      1
 179  A  501     16  A   24      4
 179  A  501     18  A   26      3
 179  A  501     19  A   27      5
 179  A  501     20  A   28     51
 179  A  501     34  A   42      1
 179  A  501     35  A   43      6
 179  A  501     36  A   44     39
 179  A  501     37  A   45     11
 179  A  501     38  A   46     51
 179  A  501     60  A   68     48
 180  A  502     15  A   23     28
 180  A  502     16  A   24     24
 180  A  502     17  A   25      1
 180  A  502     18  A   26      3
 180  A  502     19  A   27     49
 180  A  502     20  A   28     51
 180  A  502     32  A   40      1
 180  A  502     35  A   43      1
 180  A  502     36  A   44      6
 180  A  502     37  A   45     11
 180  A  502     38  A   46     51
 180  A  502     39  A   47     19
 180  A  502     60  A   68     50
 180  A  502     61  A   69     41
 180  A  502     62  A   70     38
 180  A  502     63  A   71     15
 180  A  502    178  A  500     51
 181  A  503     19  A   27      1
 181  A  503     20  A   28     51
 181  A  503     21  A   29      2
 181  A  503     24  A   32      8
 181  A  503     32  A   40     25
 181  A  503     34  A   42      1
 181  A  503     35  A   43     50
 181  A  503     36  A   44     47
 181  A  503     37  A   45     24
 181  A  503     38  A   46     51
 181  A  503     43  A   51      1
 181  A  503     60  A   68     19
 181  A  503     61  A   69      1
 181  A  503     62  A   70      1
 181  A  503    178  A  500     51
 181  A  503    179  A  501     51
 184  B  393    182  B  391     51
 185  B  394    182  B  391     12
 185  B  394    183  B  392     51
 186  B  395    182  B  391     31
 186  B  395    183  B  392     51
 186  B  395    184  B  393     51
 187  B  396    182  B  391      6
 187  B  396    183  B  392     51
 187  B  396    184  B  393     51
 187  B  396    185  B  394     51
 188  B  397    183  B  392      9
 188  B  397    184  B  393     43
 188  B  397    185  B  394     51
 188  B  397    186  B  395     51
 189  B  398    185  B  394     51
 189  B  398    186  B  395     51
 189  B  398    187  B  396     51
 190  B  399    182  B  391      2
 190  B  399    183  B  392     29
 190  B  399    185  B  394     25
 190  B  399    186  B  395     51
 190  B  399    187  B  396     51
 190  B  399    188  B  397     51
 191  B  400    186  B  395     50
 191  B  400    187  B  396     51
 191  B  400    188  B  397     51
 191  B  400    189  B  398     51
 192  B  401    187  B  396     31
 192  B  401    188  B  397     51
 192  B  401    189  B  398     51
 192  B  401    190  B  399     51
 193  B  402    188  B  397     51
 193  B  402    189  B  398     51
 193  B  402    190  B  399     51
 193  B  402    191  B  400     51
 194  B  403    189  B  398     49
 194  B  403    190  B  399     51
 194  B  403    191  B  400     51
 194  B  403    192  B  401     51
 195  B  404    190  B  399     49
 195  B  404    191  B  400     51
 195  B  404    192  B  401     51
 195  B  404    193  B  402     51
 196  B  405    191  B  400     12
 196  B  405    192  B  401     51
 196  B  405    193  B  402     51
 196  B  405    194  B  403     51
 197  B  406     41  A   49      4
 197  B  406    192  B  401     51
 197  B  406    193  B  402     51
 197  B  406    194  B  403     51
 197  B  406    195  B  404     51
 198  B  407    193  B  402     50
 198  B  407    194  B  403     51
 198  B  407    195  B  404     51
 198  B  407    196  B  405     51
 199  B  408    194  B  403     43
 199  B  408    195  B  404     51
 199  B  408    196  B  405     51
 199  B  408    197  B  406     51
 200  B  409     39  A   47      2
 200  B  409     40  A   48     51
 200  B  409     41  A   49      6
 200  B  409     74  A   82     51
 200  B  409    195  B  404     39
 200  B  409    196  B  405     51
 200  B  409    197  B  406     51
 200  B  409    198  B  407     51
 201  B  410     40  A   48      1
 201  B  410     67  A   75      8
 201  B  410    196  B  405     51
 201  B  410    197  B  406     51
 201  B  410    198  B  407     51
 201  B  410    199  B  408     51
 202  B  411    197  B  406     51
 202  B  411    198  B  407     51
 202  B  411    199  B  408     51
 202  B  411    200  B  409     51
 203  B  412     69  A   77     45
 203  B  412     73  A   81      2
 203  B  412    198  B  407     48
 203  B  412    199  B  408     51
 203  B  412    200  B  409     51
 203  B  412    201  B  410     51
 204  B  413     39  A   47     28
 204  B  413     40  A   48     51
 204  B  413     59  A   67      5
 204  B  413     67  A   75     50
 204  B  413     69  A   77     51
 204  B  413     70  A   78     51
 204  B  413     73  A   81      3
 204  B  413     74  A   82     50
 204  B  413    199  B  408     50
 204  B  413    200  B  409     51
 204  B  413    201  B  410     51
 204  B  413    202  B  411     51
 205  B  414     67  A   75     21
 205  B  414     69  A   77      2
 205  B  414    198  B  407      9
 205  B  414    200  B  409     44
 205  B  414    201  B  410     51
 205  B  414    202  B  411     51
 205  B  414    203  B  412     51
 206  B  415    201  B  410     51
 206  B  415    202  B  411     51
 206  B  415    203  B  412     51
 206  B  415    204  B  413     51
 207  B  416     68  A   76     12
 207  B  416     69  A   77     51
 207  B  416     73  A   81     51
 207  B  416     74  A   82      4
 207  B  416     76  A   84      2
 207  B  416    202  B  411     49
 207  B  416    203  B  412     51
 207  B  416    204  B  413     51
 207  B  416    205  B  414     51
 208  B  417     65  A   73      2
 208  B  417     66  A   74     51
 208  B  417     67  A   75     51
 208  B  417     68  A   76     51
 208  B  417     69  A   77     51
 208  B  417     70  A   78     18
 208  B  417     73  A   81     49
 208  B  417    203  B  412     47
 208  B  417    204  B  413     51
 208  B  417    205  B  414     51
 208  B  417    206  B  415     51
 209  B  418    204  B  413      6
 209  B  418    205  B  414     51
 209  B  418    206  B  415     51
 209  B  418    207  B  416     51
 210  B  419     68  A   76      5
 210  B  419     73  A   81     19
 210  B  419    205  B  414      2
 210  B  419    206  B  415     49
 210  B  419    207  B  416     51
 210  B  419    208  B  417     51
 211  B  420     69  A   77      1
 211  B  420     73  A   81     24
 211  B  420     76  A   84      1
 211  B  420    206  B  415     51
 211  B  420    207  B  416     51
 211  B  420    208  B  417     34
 211  B  420    209  B  418     49
 212  B  421     72  A   80     23
 212  B  421     73  A   81     44
 212  B  421     75  A   83      1
 212  B  421     76  A   84     32
 212  B  421    105  A  113      2
 212  B  421    106  A  114     27
 212  B  421    206  B  415      6
 212  B  421    207  B  416     51
 212  B  421    210  B  419     51
 213  B  422     73  A   81      1
 213  B  422     76  A   84      5
 213  B  422    207  B  416     41
 213  B  422    211  B  420     34
 214  B  423     76  A   84     41
 214  B  423    109  A  117      1
 214  B  423    211  B  420      2
 214  B  423    212  B  421      9
 215  B  424     76  A   84      3
 215  B  424    203  B  412      5
 215  B  424    213  B  422     51
 216  B  425     72  A   80      4
 216  B  425     73  A   81     19
 216  B  425     74  A   82      3
 216  B  425     76  A   84     16
 216  B  425    203  B  412     51
 216  B  425    206  B  415     11
 216  B  425    207  B  416     51
 216  B  425    211  B  420     51
 216  B  425    212  B  421     51
 216  B  425    213  B  422     51
 216  B  425    214  B  423     51
 217  B  426     72  A   80      5
 217  B  426     73  A   81     51
 217  B  426     74  A   82     22
 217  B  426     75  A   83      3
 217  B  426     76  A   84     51
 217  B  426     77  A   85     44
 217  B  426    106  A  114      7
 217  B  426    203  B  412      6
 217  B  426    207  B  416     46
 217  B  426    211  B  420      2
 217  B  426    212  B  421     36
 217  B  426    213  B  422     51
 217  B  426    214  B  423     51
 217  B  426    215  B  424     51
 218  B  427     76  A   84     20
 218  B  427     77  A   85     49
 218  B  427    213  B  422     18
 218  B  427    214  B  423     51
 218  B  427    215  B  424     51
 218  B  427    216  B  425     51
 219  B  428    196  B  405      4
 219  B  428    199  B  408     24
 219  B  428    200  B  409      3
 219  B  428    203  B  412     51
 219  B  428    207  B  416      1
 219  B  428    214  B  423     50
 219  B  428    215  B  424     51
 219  B  428    216  B  425     51
 219  B  428    217  B  426     51
 220  B  429     69  A   77     50
 220  B  429     70  A   78     14
 220  B  429     73  A   81     50
 220  B  429     74  A   82     51
 220  B  429    200  B  409     51
 220  B  429    203  B  412     51
 220  B  429    204  B  413     51
 220  B  429    207  B  416     51
 220  B  429    215  B  424     50
 220  B  429    216  B  425     51
 220  B  429    217  B  426     51
 220  B  429    218  B  427     51
 221  B  430      8  A   16     49
 221  B  430      9  A   17     23
 221  B  430     10  A   18     51
 221  B  430     42  A   50     15
 221  B  430     44  A   52      2
 221  B  430     57  A   65     51
 221  B  430     58  A   66     11
 221  B  430     59  A   67     51
 221  B  430     73  A   81     24
 221  B  430     74  A   82     51
 221  B  430     75  A   83     50
 221  B  430     76  A   84     41
 221  B  430     77  A   85     51
 221  B  430     78  A   86     50
 221  B  430     79  A   87      1
 221  B  430    216  B  425     39
 221  B  430    217  B  426     51
 221  B  430    218  B  427     51
 221  B  430    219  B  428     51
 222  B  431    217  B  426     36
 222  B  431    218  B  427     51
 222  B  431    219  B  428     51
 222  B  431    220  B  429     51
 223  B  432     74  A   82     19
 223  B  432    196  B  405     51
 223  B  432    199  B  408     51
 223  B  432    200  B  409     51
 223  B  432    203  B  412     51
 223  B  432    218  B  427     28
 223  B  432    219  B  428     51
 223  B  432    220  B  429     51
 223  B  432    221  B  430     51
 224  B  433      8  A   16      2
 224  B  433     39  A   47      1
 224  B  433     40  A   48     51
 224  B  433     41  A   49     50
 224  B  433     42  A   50     51
 224  B  433     43  A   51      2
 224  B  433     44  A   52      2
 224  B  433     57  A   65     18
 224  B  433     59  A   67     51
 224  B  433     74  A   82     51
 224  B  433    200  B  409     51
 224  B  433    204  B  413     37
 224  B  433    219  B  428     51
 224  B  433    220  B  429     51
 224  B  433    221  B  430     51
 224  B  433    222  B  431     51
 225  B  434      6  A   14     25
 225  B  434      8  A   16     47
 225  B  434     42  A   50     19
 225  B  434     44  A   52     43
 225  B  434     55  A   63      1
 225  B  434     57  A   65     40
 225  B  434     77  A   85     10
 225  B  434     78  A   86      1
 225  B  434    218  B  427     10
 225  B  434    219  B  428      1
 225  B  434    220  B  429     37
 225  B  434    221  B  430     51
 225  B  434    222  B  431     51
 225  B  434    223  B  432     51
 226  B  435     44  A   52      4
 226  B  435    192  B  401      7
 226  B  435    196  B  405     51
 226  B  435    199  B  408      3
 226  B  435    219  B  428     11
 226  B  435    221  B  430     45
 226  B  435    222  B  431     51
 226  B  435    223  B  432     51
 226  B  435    224  B  433     51
 227  B  436     40  A   48     28
 227  B  436     41  A   49     33
 227  B  436     42  A   50     22
 227  B  436     43  A   51      2
 227  B  436    192  B  401      8
 227  B  436    193  B  402     51
 227  B  436    196  B  405     51
 227  B  436    197  B  406     51
 227  B  436    200  B  409     51
 227  B  436    222  B  431     44
 227  B  436    223  B  432     51
 227  B  436    224  B  433     51
 227  B  436    225  B  434     51
 228  B  437     40  A   48      2
 228  B  437     41  A   49      8
 228  B  437     42  A   50     51
 228  B  437     43  A   51     51
 228  B  437     44  A   52     51
 228  B  437     57  A   65     37
 228  B  437    223  B  432     51
 228  B  437    224  B  433     51
 228  B  437    225  B  434     51
 228  B  437    226  B  435     51
 229  B  438     44  A   52     47
 229  B  438    224  B  433     51
 229  B  438    225  B  434     51
 229  B  438    226  B  435     51
 229  B  438    227  B  436     51
 230  B  439    188  B  397      7
 230  B  439    189  B  398     51
 230  B  439    190  B  399      9
 230  B  439    192  B  401     51
 230  B  439    193  B  402     51
 230  B  439    195  B  404      1
 230  B  439    196  B  405     51
 230  B  439    225  B  434     50
 230  B  439    226  B  435     51
 230  B  439    227  B  436     51
 230  B  439    228  B  437     51
 231  B  440     35  A   43     10
 231  B  440     36  A   44      1
 231  B  440     37  A   45     14
 231  B  440     40  A   48      1
 231  B  440     41  A   49     38
 231  B  440     42  A   50     19
 231  B  440     43  A   51     31
 231  B  440     44  A   52      1
 231  B  440    189  B  398      6
 231  B  440    193  B  402     51
 231  B  440    194  B  403      2
 231  B  440    197  B  406     29
 231  B  440    224  B  433      2
 231  B  440    226  B  435     51
 231  B  440    227  B  436     51
 231  B  440    228  B  437     51
 231  B  440    229  B  438     51
 232  B  441     43  A   51     25
 232  B  441     44  A   52     21
 232  B  441     46  A   54      2
 232  B  441    227  B  436     31
 232  B  441    228  B  437     51
 232  B  441    229  B  438     51
 232  B  441    230  B  439     51
 233  B  442    185  B  394      1
 233  B  442    186  B  395      3
 233  B  442    189  B  398     51
 233  B  442    192  B  401     12
 233  B  442    193  B  402      9
 233  B  442    228  B  437     22
 233  B  442    229  B  438     51
 233  B  442    230  B  439     51
 233  B  442    231  B  440     51
 234  B  443    182  B  391      1
 234  B  443    186  B  395     51
 234  B  443    189  B  398     51
 234  B  443    190  B  399     51
 234  B  443    193  B  402     51
 234  B  443    229  B  438     42
 234  B  443    230  B  439     51
 234  B  443    231  B  440     51
 234  B  443    232  B  441     51
 235  B  444     28  A   36     37
 235  B  444     35  A   43      3
 235  B  444     43  A   51     23
 235  B  444     44  A   52      1
 235  B  444    186  B  395     15
 235  B  444    228  B  437      2
 235  B  444    230  B  439     19
 235  B  444    231  B  440     51
 235  B  444    232  B  441     51
 235  B  444    233  B  442     51
 236  B  445    182  B  391      1
 236  B  445    186  B  395      1
 236  B  445    189  B  398      1
 236  B  445    231  B  440     21
 236  B  445    232  B  441     51
 236  B  445    233  B  442     51
 236  B  445    234  B  443     51
