# Running ./ex_Ising2D
    1   -51.00
    2   -56.00
    3   -50.00
    4   -51.00
    5    -9.00
    6   -69.00
    7   -27.00
    8   -31.00
    9   -50.00
   10   -32.00
   11   -44.00
   12   -71.00
   13   -25.00
   14   -45.00
   15   -43.00
   16   -24.00
   17   -42.00
   18   -30.00
   19   -51.00
   20   -40.00
   21    -5.00
   22   -48.00
   23   -27.00
   24   -35.00
   25   -34.00
   26   -45.00
   27   -34.00
   28   -59.00
   29   -46.00
   30   -36.00
   31   -42.00
   32   -51.00
   33   -16.00
   34   -26.00
   35   -56.00
   36   -57.00
   37   -21.00
   38   -71.00
   39   -48.00
   40   -49.00
   41   -22.00
   42   -40.00
   43   -62.00
   44   -62.00
   45   -10.00
   46   -58.00
   47   -60.00
   48   -34.00
   49   -33.00
   50   -42.00
   51   -37.00
   52   -39.00
   53   -56.00
   54   -26.00
   55   -44.00
   56   -28.00
   57   -37.00
   58   -15.00
   59   -64.00
   60   -28.00
   61   -42.00
   62   -49.00
   63   -46.00
   64   -57.00
   65   -56.00
   66   -21.00
   67   -23.00
   68   -51.00
   69   -41.00
   70   -69.00
   71   -71.00
   72   -65.00
   73   -50.00
   74   -36.00
   75   -71.00
   76   -61.00
   77   -48.00
   78   -20.00
   79   -55.00
   80   -41.00
   81   -72.00
   82   -14.00
   83   -39.00
   84   -39.00
   85   -43.00
   86   -31.00
   87   -68.00
   88   -61.00
   89   -24.00
   90   -50.00
   91   -35.00
   92   -38.00
   93   -51.00
   94   -38.00
   95   -41.00
   96   -27.00
   97   -32.00
   98   -28.00
   99   -38.00
  100   -54.00
  101   -36.00
  102   -61.00
  103   -72.00
  104   -34.00
  105   -90.00
  106   -50.00
  107   -74.00
  108   -39.00
  109   -85.00
  110   -61.00
  111   -26.00
  112   -85.00
  113   -63.00
  114   -58.00
  115   -54.00
  116   -43.00
  117   -66.00
  118   -54.00
  119   -54.00
  120   -49.00
  121   -77.00
  122   -36.00
  123   -77.00
  124   -34.00
  125   -45.00
  126   -40.00
  127   -50.00
  128   -68.00
  129   -32.00
  130   -57.00
  131   -45.00
  132   -67.00
  133   -41.00
  134   -29.00
  135   -73.00
  136   -64.00
  137   -74.00
  138   -38.00
  139   -72.00
  140   -85.00
  141   -71.00
  142   -72.00
  143   -70.00
  144   -55.00
  145   -61.00
  146   -55.00
  147   -47.00
  148   -43.00
  149   -62.00
  150   -30.00
  151   -61.00
  152   -54.00
  153   -73.00
  154   -45.00
  155   -71.00
  156   -34.00
  157   -65.00
  158   -59.00
  159   -46.00
  160   -41.00
  161   -70.00
  162   -68.00
  163   -65.00
  164   -26.00
  165   -43.00
  166   -41.00
  167   -42.00
  168   -48.00
  169   -11.00
  170   -62.00
  171   -59.00
  172   -31.00
  173   -62.00
  174   -47.00
  175   -49.00
  176   -61.00
  177   -33.00
  178   -40.00
  179   -61.00
  180   -59.00
  181   -34.00
  182   -59.00
  183   -68.00
  184   -63.00
  185   -84.00
  186   -62.00
  187   -61.00
  188   -19.00
  189   -56.00
  190   -44.00
  191   -39.00
  192   -37.00
  193   -57.00
  194   -62.00
  195   -41.00
  196   -44.00
  197   -29.00
  198   -34.00
  199   -48.00
  200   -82.00
  201   -68.00
  202   -78.00
  203  -122.00
  204   -62.00
  205   -69.00
  206   -57.00
  207   -52.00
  208   -66.00
  209   -98.00
  210   -59.00
  211   -56.00
  212   -63.00
  213   -59.00
  214   -60.00
  215   -53.00
  216   -61.00
  217  -107.00
  218   -83.00
  219   -88.00
  220   -71.00
  221   -62.00
  222   -74.00
  223   -97.00
  224  -111.00
  225   -71.00
  226   -66.00
  227   -57.00
  228   -58.00
  229   -59.00
  230   -69.00
  231   -78.00
  232  -101.00
  233   -54.00
  234   -76.00
  235   -64.00
  236   -75.00
  237   -72.00
  238   -90.00
  239   -74.00
  240   -72.00
  241   -42.00
  242   -85.00
  243   -76.00
  244   -94.00
  245   -69.00
  246  -120.00
  247   -51.00
  248   -78.00
  249   -65.00
  250   -54.00
  251   -54.00
  252  -117.00
  253   -54.00
  254   -75.00
  255   -56.00
  256   -58.00
  257   -64.00
  258   -72.00
  259   -62.00
  260  -112.00
  261   -92.00
  262   -60.00
  263   -68.00
  264   -76.00
  265   -41.00
  266   -58.00
  267   -97.00
  268  -102.00
  269   -83.00
  270   -74.00
  271   -83.00
  272   -80.00
  273  -129.00
  274   -62.00
  275   -90.00
  276   -70.00
  277   -57.00
  278   -67.00
  279   -74.00
  280   -51.00
  281   -79.00
  282   -72.00
  283   -70.00
  284   -95.00
  285   -63.00
  286   -75.00
  287   -74.00
  288   -62.00
  289   -89.00
  290   -82.00
  291   -50.00
  292   -89.00
  293   -94.00
  294   -82.00
  295   -64.00
  296  -104.00
  297   -97.00
  298   -75.00
  299   -99.00
  300   -81.00
  301  -118.00
  302   -78.00
  303   -92.00
  304  -107.00
  305  -100.00
  306   -99.00
  307   -89.00
  308  -114.00
  309   -91.00
  310  -142.00
  311  -117.00
  312  -113.00
  313  -110.00
  314  -100.00
  315   -96.00
  316  -115.00
  317   -80.00
  318   -97.00
  319   -86.00
  320  -118.00
  321  -105.00
  322   -90.00
  323   -88.00
  324   -87.00
  325   -76.00
  326   -80.00
  327  -156.00
  328  -112.00
  329   -66.00
  330   -75.00
  331   -96.00
  332  -121.00
  333   -90.00
  334  -102.00
  335   -89.00
  336  -120.00
  337   -99.00
  338   -86.00
  339  -106.00
  340  -105.00
  341  -112.00
  342   -68.00
  343  -109.00
  344   -79.00
  345  -106.00
  346   -65.00
  347   -71.00
  348  -109.00
  349   -65.00
  350   -73.00
  351   -98.00
  352   -94.00
  353  -153.00
  354  -147.00
  355   -99.00
  356   -78.00
  357  -113.00
  358  -111.00
  359   -95.00
  360  -134.00
  361  -131.00
  362  -109.00
  363   -94.00
  364  -128.00
  365  -111.00
  366  -120.00
  367  -107.00
  368  -112.00
  369  -108.00
  370   -62.00
  371  -120.00
  372   -72.00
  373   -98.00
  374   -96.00
  375  -101.00
  376   -73.00
  377  -133.00
  378   -92.00
  379   -86.00
  380   -95.00
  381   -45.00
  382   -56.00
  383  -117.00
  384  -103.00
  385   -83.00
  386  -133.00
  387   -95.00
  388   -62.00
  389   -90.00
  390   -67.00
  391   -89.00
  392  -154.00
  393  -114.00
  394   -82.00
  395  -119.00
  396  -102.00
  397   -90.00
  398  -116.00
  399   -71.00
  400  -100.00
  401  -109.00
  402   -92.00
  403  -128.00
  404  -149.00
  405  -112.00
  406  -143.00
  407   -80.00
  408  -142.00
  409  -101.00
  410  -137.00
  411  -145.00
  412  -155.00
  413   -73.00
  414  -106.00
  415   -95.00
  416  -114.00
  417   -99.00
  418  -136.00
  419  -157.00
  420   -89.00
  421  -102.00
  422  -151.00
  423  -137.00
  424  -142.00
  425  -142.00
  426   -71.00
  427  -103.00
  428  -154.00
  429  -113.00
  430  -126.00
  431   -83.00
  432  -116.00
  433   -98.00
  434  -138.00
  435  -136.00
  436  -136.00
  437   -91.00
  438  -131.00
  439  -125.00
  440   -68.00
  441  -117.00
  442  -139.00
  443  -105.00
  444  -147.00
  445  -140.00
  446  -135.00
  447  -127.00
  448  -167.00
  449  -104.00
  450  -116.00
  451  -109.00
  452   -91.00
  453   -98.00
  454   -81.00
  455  -113.00
  456  -133.00
  457  -144.00
  458   -98.00
  459  -122.00
  460  -137.00
  461   -90.00
  462   -85.00
  463  -146.00
  464  -136.00
  465  -158.00
  466  -114.00
  467  -141.00
  468  -132.00
  469   -89.00
  470  -117.00
  471  -162.00
  472   -84.00
  473   -97.00
  474  -145.00
  475  -120.00
  476  -126.00
  477  -156.00
  478  -113.00
  479  -153.00
  480  -105.00
  481  -108.00
  482  -123.00
  483  -117.00
  484  -126.00
  485  -112.00
  486  -115.00
  487  -103.00
  488   -89.00
  489  -168.00
  490  -125.00
  491  -146.00
  492  -170.00
  493   -79.00
  494  -125.00
  495  -113.00
  496  -161.00
  497  -126.00
  498  -125.00
  499   -87.00
  500  -135.00
  501  -166.00
  502  -182.00
  503  -144.00
  504  -182.00
  505  -126.00
  506  -141.00
  507  -130.00
  508  -158.00
  509  -107.00
  510  -149.00
  511  -143.00
  512  -162.00
  513  -168.00
  514  -157.00
  515  -166.00
  516  -174.00
  517  -158.00
  518  -146.00
  519  -169.00
  520  -161.00
  521  -160.00
  522  -166.00
  523  -172.00
  524  -145.00
  525  -169.00
  526  -157.00
  527  -152.00
  528  -150.00
  529  -139.00
  530  -129.00
  531  -182.00
  532  -149.00
  533  -150.00
  534  -157.00
  535  -119.00
  536  -154.00
  537  -154.00
  538  -141.00
  539  -166.00
  540  -125.00
  541  -163.00
  542  -152.00
  543  -131.00
  544  -151.00
  545  -185.00
  546  -138.00
  547  -175.00
  548   -89.00
  549  -161.00
  550  -155.00
  551  -150.00
  552  -110.00
  553  -117.00
  554  -158.00
  555  -173.00
  556  -154.00
  557  -166.00
  558  -128.00
  559  -123.00
  560  -117.00
  561  -164.00
  562  -167.00
  563  -151.00
  564  -145.00
  565  -127.00
  566  -157.00
  567  -150.00
  568  -155.00
  569  -158.00
  570  -167.00
  571  -161.00
  572  -129.00
  573  -136.00
  574  -115.00
  575  -164.00
  576  -182.00
  577  -137.00
  578  -144.00
  579  -140.00
  580  -134.00
  581  -141.00
  582  -140.00
  583  -169.00
  584  -138.00
  585  -161.00
  586  -139.00
  587  -134.00
  588  -149.00
  589  -185.00
  590  -146.00
  591  -143.00
  592  -180.00
  593  -161.00
  594  -143.00
  595  -131.00
  596  -156.00
  597  -185.00
  598  -154.00
  599  -162.00
  600  -160.00
  601  -144.00
  602  -165.00
  603  -172.00
  604  -163.00
  605  -174.00
  606  -177.00
  607  -167.00
  608  -170.00
  609  -169.00
  610  -149.00
  611  -172.00
  612  -165.00
  613  -173.00
  614  -177.00
  615  -181.00
  616  -180.00
  617  -182.00
  618  -182.00
  619  -183.00
  620  -190.00
  621  -185.00
  622  -172.00
  623  -165.00
  624  -169.00
  625  -190.00
  626  -165.00
  627  -146.00
  628  -178.00
  629  -180.00
  630  -166.00
  631  -190.00
  632  -152.00
  633  -173.00
  634  -182.00
  635  -172.00
  636  -170.00
  637  -172.00
  638  -133.00
  639  -180.00
  640  -158.00
  641  -185.00
  642  -172.00
  643  -155.00
  644  -178.00
  645  -156.00
  646  -152.00
  647  -165.00
  648  -149.00
  649  -174.00
  650  -172.00
  651  -190.00
  652  -149.00
  653  -173.00
  654  -174.00
  655  -144.00
  656  -177.00
  657  -152.00
  658  -164.00
  659  -185.00
  660  -168.00
  661  -166.00
  662  -182.00
  663  -170.00
  664  -169.00
  665  -141.00
  666  -180.00
  667  -165.00
  668  -177.00
  669  -175.00
  670  -172.00
  671  -171.00
  672  -190.00
  673  -177.00
  674  -173.00
  675  -158.00
  676  -165.00
  677  -151.00
  678  -147.00
  679  -164.00
  680  -182.00
  681  -151.00
  682  -178.00
  683  -161.00
  684  -172.00
  685  -132.00
  686  -150.00
  687  -165.00
  688  -173.00
  689  -173.00
  690  -174.00
  691  -154.00
  692  -181.00
  693  -160.00
  694  -177.00
  695  -174.00
  696  -175.00
  697  -163.00
  698  -156.00
  699  -148.00
  700  -142.00
  701  -185.00
  702  -165.00
  703  -174.00
  704  -185.00
  705  -167.00
  706  -168.00
  707  -190.00
  708  -185.00
  709  -170.00
  710  -190.00
  711  -185.00
  712  -190.00
  713  -190.00
  714  -169.00
  715  -177.00
  716  -190.00
  717  -177.00
  718  -190.00
  719  -182.00
  720  -167.00
  721  -181.00
  722  -190.00
  723  -180.00
  724  -177.00
  725  -182.00
  726  -190.00
  727  -190.00
  728  -166.00
  729  -165.00
  730  -182.00
  731  -182.00
  732  -174.00
  733  -175.00
  734  -185.00
  735  -190.00
  736  -190.00
  737  -185.00
  738  -182.00
  739  -162.00
  740  -185.00
  741  -185.00
  742  -190.00
  743  -181.00
  744  -190.00
  745  -182.00
  746  -174.00
  747  -182.00
  748  -174.00
  749  -166.00
  750  -190.00
  751  -176.00
  752  -185.00
  753  -190.00
  754  -180.00
  755  -165.00
  756  -185.00
  757  -190.00
  758  -190.00
  759  -167.00
  760  -157.00
  761  -190.00
  762  -185.00
  763  -177.00
  764  -190.00
  765  -172.00
  766  -182.00
  767  -174.00
  768  -170.00
  769  -175.00
  770  -180.00
  771  -182.00
  772  -175.00
  773  -190.00
  774  -190.00
  775  -185.00
  776  -177.00
  777  -171.00
  778  -161.00
  779  -190.00
  780  -171.00
  781  -177.00
  782  -169.00
  783  -174.00
  784  -181.00
  785  -180.00
  786  -190.00
  787  -182.00
  788  -182.00
  789  -190.00
  790  -173.00
  791  -182.00
  792  -169.00
  793  -185.00
  794  -183.00
  795  -174.00
  796  -185.00
  797  -182.00
  798  -177.00
  799  -185.00
  800  -190.00
  801  -190.00
  802  -190.00
  803  -190.00
  804  -190.00
  805  -190.00
  806  -190.00
  807  -190.00
  808  -185.00
  809  -190.00
  810  -185.00
  811  -190.00
  812  -190.00
  813  -185.00
  814  -190.00
  815  -190.00
  816  -190.00
  817  -190.00
  818  -185.00
  819  -190.00
  820  -190.00
  821  -185.00
  822  -190.00
  823  -190.00
  824  -190.00
  825  -190.00
  826  -182.00
  827  -190.00
  828  -185.00
  829  -182.00
  830  -190.00
  831  -190.00
  832  -185.00
  833  -185.00
  834  -185.00
  835  -190.00
  836  -190.00
  837  -190.00
  838  -190.00
  839  -190.00
  840  -190.00
  841  -185.00
  842  -190.00
  843  -185.00
  844  -185.00
  845  -185.00
  846  -190.00
  847  -190.00
  848  -190.00
  849  -190.00
  850  -190.00
  851  -190.00
  852  -190.00
  853  -190.00
  854  -190.00
  855  -190.00
  856  -185.00
  857  -190.00
  858  -190.00
  859  -185.00
  860  -190.00
  861  -190.00
  862  -190.00
  863  -190.00
  864  -190.00
  865  -185.00
  866  -190.00
  867  -190.00
  868  -190.00
  869  -190.00
  870  -190.00
  871  -185.00
  872  -190.00
  873  -190.00
  874  -190.00
  875  -181.00
  876  -190.00
  877  -190.00
  878  -190.00
  879  -185.00
  880  -190.00
  881  -190.00
  882  -190.00
  883  -185.00
  884  -190.00
  885  -182.00
  886  -190.00
  887  -190.00
  888  -190.00
  889  -190.00
  890  -190.00
  891  -185.00
  892  -190.00
  893  -190.00
  894  -185.00
  895  -190.00
  896  -190.00
  897  -190.00
  898  -185.00
  899  -190.00
  900  -190.00
