#Running python3 ./align_sequences.py  test_inputs/2azaA.fasta test_inputs/2pcyA.fasta
# score: 7
> query
AQCEATIESND-AMQYDLKEMVVDKSCKQFTVHLKHVGKMAKSAMGHNWVLTKEADKEGVATDGMNAGLAQDYVKAGDTRVIAHTKVIGGGESDSVTFDVSKLTPGEAYAYFCSFPGHWAMMKGTLKLSN
> template
--IDVLLGADDGSLAFVPSEFSISPGEK---IVFKN-----NAGFPHNIVFDEDSIPSGVDASKISMS-EEDLLNA-------------KGE----TFEVALSNKGE-YSFYCS-PHQGAGMVGKVTV-N
