#Running python3 ./validate_saturated_ring6.py  test_inputs/pdb6bge.ent.gz EPE  _N1_ _C2_ _C3_ _N4_ _C5_ _C6_
-0.1925710847130774 0.5737962632220507
#Running python3 ./validate_saturated_ring6.py  test_inputs/4jm3.pdb EPE  _N1_ _C2_ _C3_ _N4_ _C5_ _C6_
0.5099014885977491 -0.43821288980245376
0.5010421713940876 -0.43226267831219967
