#Running ap_PairwiseCrmsd ./test_inputs/2gb1.pdb ./test_inputs/2gb1-model1.pdb     ./test_inputs/2gb1-model2.pdb ./test_inputs/2gb1-model3.pdb ./test_inputs/2gb1-model4.pdb
# crmsd on alpha carbons:
2gb1-model1 2gb1 4.93952
2gb1-model2 2gb1 5.33349
2gb1-model2 2gb1-model1 6.54171
2gb1-model3 2gb1 3.78496
2gb1-model3 2gb1-model1 6.09054
2gb1-model3 2gb1-model2 4.00417
2gb1-model4 2gb1 9.52768
2gb1-model4 2gb1-model1 10.9732
2gb1-model4 2gb1-model2 9.84725
2gb1-model4 2gb1-model3 10.0134
# crmsd on heavy backbone atoms:
2gb1-model1 2gb1 5.00933
2gb1-model2 2gb1 5.31918
2gb1-model2 2gb1-model1 6.57593
2gb1-model3 2gb1 3.73247
2gb1-model3 2gb1-model1 6.1692
2gb1-model3 2gb1-model2 4.06522
2gb1-model4 2gb1 9.68374
2gb1-model4 2gb1-model1 10.9982
2gb1-model4 2gb1-model2 9.98642
2gb1-model4 2gb1-model3 10.2181
