Running: ./str_calc -in::pdb=./test_inputs/2gb1.pdb -calc:hbonds:bb
   3 TYR A ->   18 THR A : 2.620 3.346 165.58   94.25  -1.170    -0.702   0.211   2.515     16.25  163.29
   4 LYS A ->   50 LYS A : 2.259 3.156 120.71  159.88  -1.310     1.445   1.249   1.205     57.75   40.83
   5 LEU A ->   16 THR A : 1.838 2.802 143.84 -115.27  -2.834     0.102  -1.075   1.488     35.98  -84.57
   6 ILE A ->   52 PHE A : 2.310 2.934 111.11  158.72  -0.539     1.131   1.818   0.869     67.90   58.11
   7 LEU A ->   14 GLY A : 1.884 2.740 120.79  134.28  -2.026     0.390   1.564   0.975     58.83   76.00
   8 ASN A ->    6 ILE A : 3.006 3.285 112.85   46.01  -0.695     2.644   0.686   1.255     65.33   14.54
   8 ASN A ->   54 VAL A : 2.025 2.945 155.33 -150.67  -2.271     0.110   0.826   1.846     24.28   82.42
  14 GLY A ->    7 LEU A : 2.104 3.046 120.22 -140.28  -1.696    -1.765   0.556   1.001     61.60  162.51
  16 THR A ->    5 LEU A : 2.520 3.242 114.59  176.12  -0.593    -1.490   1.766   1.004     66.51  130.15
  18 THR A ->    3 TYR A : 2.406 3.283 152.92  159.89  -1.458    -0.819   0.807   2.113     28.56  135.41
  20 ALA A ->    1 MET A : 2.216 3.178 166.73 -169.96  -1.989     0.324   0.319   2.169     11.83   44.53
  20 ALA A ->   18 THR A : 3.356 3.663 105.15   30.78  -0.631     2.967   1.229   0.977     73.07   22.50
  26 ALA A ->   22 ASP A : 2.535 3.318 130.92  175.28  -0.931     1.015   1.592   1.692     48.13   57.46
  27 GLU A ->   23 ALA A : 2.246 3.070 141.16  143.58  -1.525     0.790   1.125   1.776     37.73   54.94
  27 GLU A ->   24 ALA A : 2.019 2.776 112.95 -153.78  -1.224    -0.183   1.853   0.782     67.23   95.65
  28 LYS A ->   24 ALA A : 2.536 3.476 156.36  147.53  -1.404     0.932  -0.139   2.354     21.81   -8.48
  29 VAL A ->   25 THR A : 1.949 2.878 142.88 -174.38  -2.335     0.178   1.154   1.561     36.81   81.21
  30 PHE A ->   26 ALA A : 2.163 3.151 141.17 -157.63  -1.973    -0.369   1.318   1.675     39.26  105.62
  31 LYS A ->   27 GLU A : 2.202 3.123 135.30 -159.57  -1.677     0.548   1.427   1.585     43.98   68.99
  32 GLN A ->   28 LYS A : 1.811 2.745 152.87  140.99  -2.914     0.166   0.796   1.618     26.69   78.24
  33 TYR A ->   29 VAL A : 2.502 3.371 138.24  161.67  -1.190     1.299   0.963   1.909     40.27   36.55
  33 TYR A ->   30 PHE A : 2.048 2.700 104.86 -160.60  -0.668    -0.179   1.973   0.521     75.27   95.17
  34 ALA A ->   30 PHE A : 1.966 2.928 166.23  123.87  -2.591     0.257  -0.344   1.918     12.62  -53.26
  35 ASN A ->   31 LYS A : 1.996 2.932 150.48  158.11  -2.326     0.225   0.943   1.745     29.07   76.59
  36 ASP A ->   32 GLN A : 2.666 3.540 132.94  143.94  -0.992     1.213   1.480   1.856     45.86   50.66
  36 ASP A ->   33 TYR A : 1.979 2.692 117.30 -151.46  -1.318    -0.205   1.749   0.902     62.87   96.68
  37 ASN A ->   34 ALA A : 1.855 2.714 115.31  128.40  -2.009     0.764   1.478   0.820     63.76   62.68
  38 GLY A ->   34 ALA A : 1.905 2.762 150.58 -163.58  -2.397     0.878  -0.087   1.689     27.58   -5.66
  39 VAL A ->   34 ALA A : 2.267 3.245 121.44 -139.13  -1.520    -0.152  -1.932   1.175     58.77  -94.50
  42 GLU A ->   55 THR A : 2.423 3.367 137.23 -105.47  -1.470     0.288  -1.608   1.790     42.39  -79.83
  44 THR A ->   53 THR A : 1.768 2.701 170.00  140.88  -3.193     0.247  -0.029   1.750      8.10   -6.61
  46 ASP A ->   51 THR A : 2.321 3.083 130.65 -149.51  -1.163     0.417  -1.697   1.528     48.84  -76.20
  47 ASP A ->   45 TYR A : 2.885 3.594  90.10  -32.89  -0.796     1.924   2.149   0.072     88.57   48.17
  49 THR A ->   46 ASP A : 2.275 3.180 123.76 -124.44  -1.432     0.098   1.887   1.266     56.17   87.04
  50 LYS A ->   46 ASP A : 2.462 2.975 148.35 -163.57  -0.808     1.194   0.280   2.135     29.88   13.20
  51 THR A ->   46 ASP A : 2.244 3.217 128.43  179.41  -1.624    -1.177  -1.343   1.359     52.73 -131.24
  52 PHE A ->    4 LYS A : 1.829 2.407 108.77  163.45  -0.887    -0.311  -1.705   0.586     71.31 -100.34
  53 THR A ->   44 THR A : 2.400 3.329 136.03   -6.74  -1.643    -0.247   1.654   1.721     44.18   98.51
  54 VAL A ->    6 ILE A : 2.213 3.204 141.87 -132.57  -1.903    -0.244  -1.352   1.735     38.38 -100.22
  55 THR A ->   42 GLU A : 2.068 3.056 155.04 -165.41  -2.297    -0.608   0.693   1.851     26.48  131.28
