# This file has been generated with calc_hbonds_statistics application written by jkrys
# the columns are:
# interacting aa codes, observed interaction counts, reference (randomized) counts

#aa H_cnt H_ref  E_cnt  E_ref
AA 10334 11025    2324  2815
AR  4411  4327    1027  1011
AN  2085  2076     498   499
AD  3323  3062     763   725
AC   732   748     211   191
AQ  3252  3166     746   700
AE  5755  5419    1297  1210
AG  2398  2431     637   660
AH  1325  1423     350   350
AI  4464  4390    1111  1127
AL  8592  8464    2166  2017
AK  4031  3960     887   862
AM  1764  1701     429   410
AF  2708  2673     713   673
AP   911   983     240   248
AS  2739  2873     660   718
AT  3041  3025     794   764
AW   943  1021     249   248
AY  2263  2231     589   574
AV  5140  5194    1484  1369
RA  4411  4327    1027  1011
RR  1968  2675     438   773
RN  1034   920     260   231
RD  2008  1458     528   357
RC   341   360      85    93
RQ  1653  1477     395   335
RE  3840  2744     937   631
RG  1048  1059     303   291
RH   657   694     190   179
RI  1829  2097     471   538
RL  3843  4135     910   980
RK  1609  1783     372   395
RM   724   797     184   198
RF  1135  1291     287   341
RP   523   458     110   122
RS  1481  1332     382   337
RT  1367  1372     382   352
RW   460   504     137   124
RY   929  1056     294   286
RV  2072  2361     542   648
NA  2085  2075     498   499
NR  1034   920     260   231
NN   804   892     302   336
ND   929   776     260   196
NC   174   190      49    50
NQ   784   810     213   193
NE  1242  1328     301   318
NG   552   527     177   160
NH   334   346     108    93
NI  1152  1204     300   339
NL  1928  2062     451   524
NK  1392  1141     299   270
NM   367   425     120   110
NF   677   728     206   203
NP   185   211      38    57
NS   824   752     247   210
NT   887   767     257   213
NW   246   262      78    73
NY   634   636     167   183
NV  1039  1217     291   357
DA  3323  3062     763   725
DR  2008  1458     528   357
DN   929   776     260   196
DD  1158  1461     258   475
DC   240   269      71    73
DQ  1101  1102     290   256
DE  1994  1885     449   415
DG   671   755     218   217
DH   536   503     147   134
DI  1414  1627     382   441
DL  2460  2971     602   717
DK  2158  1529     568   349
DM   534   606     134   156
DF   877  1001     238   278
DP   232   317      82    84
DS  1092  1028     298   270
DT  1135  1055     283   276
DW   338   380      95    98
DY   729   853     217   232
DV  1484  1756     379   503
CA   732   748     211   191
CR   341   360      85    93
CN   174   190      49    50
CD   240   269      71    73
CC   114   229      58   112
CQ   214   265      59    70
CE   328   457      94   120
CG   190   195      67    68
CH   163   135      35    35
CI   415   395     110   113
CL   835   717     211   203
CK   322   364      77    96
CM   178   157      61    43
CF   302   246     103    75
CP    86    78      23    25
CS   264   259      72    75
CT   282   258      91    75
CW    96    90      34    26
CY   261   204      74    64
CV   514   427     172   137
QA  3252  3167     746   700
QR  1653  1477     395   335
QN   784   809     213   193
QD  1101  1103     290   255
QC   214   265      59    70
QQ  1496  1700     368   511
QE  2275  1967     496   441
QG   709   776     175   206
QH   482   518     116   126
QI  1477  1618     372   419
QL  3165  3089     709   740
QK  1746  1512     384   335
QM   548   615     157   154
QF   946  1008     252   256
QP   396   343      94    86
QS  1113  1080     312   274
QT  1061  1080     264   270
QW   416   400      88    95
QY   752   848     213   217
QV  1541  1745     447   457
EA  5755  5419    1297  1210
ER  3840  2745     937   631
EN  1242  1327     301   317
ED  1994  1886     449   415
EC   328   457      94   120
EQ  2275  1967     496   441
EE  4154  4284     972  1128
EG  1090  1350     279   354
EH   855   902     228   206
EI  2372  2940     608   731
EL  4661  5416    1101  1243
EK  4570  2892    1016   627
EM   822  1090     184   258
EF  1529  1787     374   449
EP   484   570     125   148
ES  1811  1786     459   425
ET  1802  1813     471   444
EW   608   631     128   153
EY  1233  1474     321   366
EV  2448  3116     634   794
GA  2398  2431     637   660
GR  1048  1059     303   291
GN   552   527     177   160
GD   671   755     218   217
GC   190   195      67    68
GQ   709   776     175   206
GE  1090  1349     279   354
GG   642   881     238   407
GH   396   360     112   108
GI  1350  1163     449   372
GL  2348  2189     698   631
GK   943  1014     241   266
GM   482   467     148   134
GF   761   720     264   239
GP   168   248      59    80
GS   730   750     244   245
GT   837   788     289   249
GW   297   280     112    86
GY   722   593     235   196
GV  1565  1354     483   450
HA  1325  1423     350   349
HR   657   694     190   179
HN   334   346     108    93
HD   536   502     147   134
HC   163   134      35    35
HQ   482   518     116   127
HE   855   903     228   206
HG   396   360     112   107
HH   446   456     100   176
HI   717   742     208   206
HL  1531  1426     353   367
HK   586   651     156   159
HM   303   291      78    76
HF   503   479     156   134
HP   142   152      47    43
HS   519   472     148   131
HT   590   492     159   140
HW   172   186      53    52
HY   365   393     104   109
HV   820   814     224   239
IA  4464  4389    1111  1126
IR  1829  2098     471   539
IN  1152  1205     300   339
ID  1414  1627     382   440
IC   415   394     110   113
IQ  1477  1618     372   420
IE  2372  2941     608   731
IG  1350  1162     449   371
IH   717   742     208   206
II  3090  3101    1018  1101
IL  4830  4302    1341  1128
IK  1949  2343     482   583
IM   996   894     269   240
IF  1545  1460     454   426
IP   595   470     196   140
IS  1508  1565     415   459
IT  1466  1553     420   470
IW   556   516     165   150
IY  1341  1228     415   366
IV  3130  2581     987   813
LA  8592  8463    2166  2016
LR  3843  4135     910   979
LN  1928  2063     451   524
LD  2460  2971     602   717
LC   835   717     211   203
LQ  3165  3088     709   740
LE  4661  5417    1101  1244
LG  2348  2189     698   631
LH  1531  1425     353   367
LI  4830  4304    1341  1126
LL  9558  9451    2506  2583
LK  3594  4047     835   941
LM  1929  1649     500   396
LF  2862  2672     787   710
LP  1025   916     259   255
LS  2669  2877     698   748
LT  2741  2876     648   766
LW   996   991     236   258
LY  2416  2233     627   596
LV  5248  4788    1474  1319
KA  4031  3960     887   862
KR  1609  1783     372   395
KN  1392  1140     299   270
KD  2158  1529     568   349
KC   322   364      77    96
KQ  1746  1513     384   335
KE  4570  2891    1016   627
KG   943  1013     241   266
KH   586   651     156   159
KI  1949  2344     482   584
KL  3594  4047     835   941
KK  2158  2928     448   768
KM   682   844     150   192
KF  1188  1408     293   347
KP   441   426     114   107
KS  1507  1434     382   350
KT  1446  1435     413   352
KW   472   487     108   119
KY  1039  1206     273   297
KV  1985  2365     541   609
MA  1764  1702     429   411
MR   724   796     184   198
MN   367   424     120   110
MD   534   605     134   157
MC   178   156      61    43
MQ   548   615     157   154
ME   822  1090     184   258
MG   482   467     148   135
MH   303   290      78    76
MI   996   893     269   240
ML  1929  1649     500   396
MK   682   843     150   193
MM   502   626     140   231
MF   654   564     162   152
MP   185   187      48    49
MS   547   592     126   150
MT   604   584     165   161
MW   244   206      80    54
MY   599   467     149   128
MV  1095   987     303   282
FA  2708  2675     713   673
FR  1135  1291     287   341
FN   677   729     206   202
FD   877  1001     238   278
FC   302   246     103    75
FQ   946  1007     252   256
FE  1529  1786     374   449
FG   761   721     264   239
FH   503   479     156   134
FI  1545  1461     454   426
FL  2862  2672     787   710
FK  1188  1408     293   348
FM   654   564     162   152
FF  1202  1338     398   503
FP   281   306      92    93
FS  1075   971     275   289
FT   927   970     277   285
FW   440   347      93   101
FY   934   800     285   242
FV  1796  1567     605   502
PA   911   983     240   248
PR   523   459     110   122
PN   185   211      38    57
PD   232   317      82    84
PC    86    78      23    25
PQ   396   343      94    86
PE   484   570     125   148
PG   168   248      59    80
PH   142   152      47    43
PI   595   469     196   140
PL  1025   916     259   255
PK   441   426     114   107
PM   185   187      48    49
PF   281   306      92    93
PP   132   308      44   120
PS   275   303      87    89
PT   294   318     114    99
PW   111   117      40    32
PY   257   244     111    81
PV   755   553     211   171
SA  2739  2874     660   717
SR  1481  1331     382   337
SN   824   752     247   210
SD  1092  1028     298   269
SC   264   259      72    75
SQ  1113  1080     312   274
SE  1811  1787     459   426
SG   730   749     244   245
SH   519   473     148   131
SI  1508  1565     415   459
SL  2669  2877     698   748
SK  1507  1434     382   350
SM   547   592     126   150
SF  1075   970     275   288
SP   275   304      87    89
SS  1156  1427     430   530
ST  1149  1025     359   298
SW   340   357     119   103
SY   975   816     265   244
SV  1628  1692     491   515
TA  3041  3025     794   764
TR  1367  1372     382   353
TN   887   768     257   213
TD  1135  1055     283   276
TC   282   258      91    75
TQ  1061  1080     264   270
TE  1802  1813     471   444
TG   837   788     289   249
TH   590   491     159   140
TI  1466  1552     420   470
TL  2741  2876     648   766
TK  1446  1434     413   352
TM   604   584     165   161
TF   927   970     277   285
TP   294   317     114    99
TS  1149  1025     359   298
TT  1270  1441     428   532
TW   349   363      77   101
TY   772   791     234   244
TV  1728  1739     507   536
WA   943  1020     249   248
WR   460   504     137   124
WN   246   263      78    74
WD   338   380      95    99
WC    96    90      34    26
WQ   416   400      88    95
WE   608   632     128   153
WG   297   281     112    86
WH   172   186      53    52
WI   556   516     165   150
WL   996   991     236   258
WK   472   487     108   120
WM   244   206      80    54
WF   440   347      93   101
WP   111   117      40    32
WS   340   357     119   102
WT   349   364      77   101
WW   190   288      58   121
WY   377   307     102    92
WV   669   580     215   174
YA  2263  2231     589   574
YR   929  1056     294   286
YN   634   636     167   183
YD   729   853     217   232
YC   261   204      74    64
YQ   752   848     213   217
YE  1233  1474     321   366
YG   722   593     235   196
YH   365   393     104   110
YI  1341  1229     415   366
YL  2416  2234     627   596
YK  1039  1206     273   296
YM   599   467     149   128
YF   934   800     285   242
YP   257   244     111    81
YS   975   816     265   245
YT   772   791     234   244
YW   377   307     102    92
YY   730   987     206   404
YV  1346  1291     449   403
VA  5140  5194    1484  1369
VR  2072  2361     542   648
VN  1039  1217     291   357
VD  1484  1756     379   503
VC   514   427     172   136
VQ  1541  1746     447   457
VE  2448  3116     634   794
VG  1565  1354     483   451
VH   820   815     224   239
VI  3130  2581     987   813
VL  5248  4788    1474  1319
VK  1985  2364     541   609
VM  1095   988     303   282
VF  1796  1567     605   502
VP   755   553     211   171
VS  1628  1693     491   515
VT  1728  1739     507   535
VW   669   581     215   174
VY  1346  1292     449   402
VV  3688  3580    1234  1384
