# Running ./ex_MMAtomTyping test_inputs/amber03_atoms.par test_inputs/2gb1.pdb
 MET    1  N   : 40 N3
 MET    1  CA  : 19 CT
 MET    1  C   : 14 C
 MET    1  O   : 15 O
 MET    1  CB  : 19 CT
 MET    1  CG  : 19 CT
 MET    1  SD  : 43 S
 MET    1  CE  : 19 CT
 MET    1  H1  : 17 H
 MET    1  H2  : 17 H
 MET    1  H3  : 17 H
 MET    1  HA  : 39 HP
 MET    1  HB2 : 18 HC
 MET    1  HB3 : 18 HC
 MET    1  HG2 : 20 H1
 MET    1  HG3 : 20 H1
 MET    1  HE1 : 20 H1
 MET    1  HE2 : 20 H1
 MET    1  HE3 : 20 H1
 THR    2  N   : 16 N
 THR    2  CA  : 19 CT
 THR    2  C   : 14 C
 THR    2  O   : 15 O
 THR    2  CB  : 19 CT
 THR    2  OG1 : 22 OH
 THR    2  CG2 : 19 CT
 THR    2  H   : 17 H
 THR    2  HA  : 20 H1
 THR    2  HB  : 20 H1
 THR    2  HG1 : 23 HO
 THR    2 HG21 : 18 HC
 THR    2 HG22 : 18 HC
 THR    2 HG23 : 18 HC
 TYR    3  N   : 16 N
 TYR    3  CA  : 19 CT
 TYR    3  C   : 14 C
 TYR    3  O   : 15 O
 TYR    3  CB  : 19 CT
 TYR    3  CG  : 25 CA
 TYR    3  CD1 : 25 CA
 TYR    3  CD2 : 25 CA
 TYR    3  CE1 : 25 CA
 TYR    3  CE2 : 25 CA
 TYR    3  CZ  : 14 C
 TYR    3  OH  : 22 OH
 TYR    3  H   : 17 H
 TYR    3  HA  : 20 H1
 TYR    3  HB2 : 18 HC
 TYR    3  HB3 : 18 HC
 TYR    3  HD1 : 36 HA
 TYR    3  HD2 : 36 HA
 TYR    3  HE1 : 36 HA
 TYR    3  HE2 : 36 HA
 TYR    3  HH  : 23 HO
 LYS    4  N   : 16 N
 LYS    4  CA  : 19 CT
 LYS    4  C   : 14 C
 LYS    4  O   : 15 O
 LYS    4  CB  : 19 CT
 LYS    4  CG  : 19 CT
 LYS    4  CD  : 19 CT
 LYS    4  CE  : 19 CT
 LYS    4  NZ  : 40 N3
 LYS    4  H   : 17 H
 LYS    4  HA  : 20 H1
 LYS    4  HB2 : 18 HC
 LYS    4  HB3 : 18 HC
 LYS    4  HG2 : 18 HC
 LYS    4  HG3 : 18 HC
 LYS    4  HD2 : 18 HC
 LYS    4  HD3 : 18 HC
 LYS    4  HE2 : 39 HP
 LYS    4  HE3 : 39 HP
 LYS    4  HZ1 : 17 H
 LYS    4  HZ2 : 17 H
 LYS    4  HZ3 : 17 H
 LEU    5  N   : 16 N
 LEU    5  CA  : 19 CT
 LEU    5  C   : 14 C
 LEU    5  O   : 15 O
 LEU    5  CB  : 19 CT
 LEU    5  CG  : 19 CT
 LEU    5  CD1 : 19 CT
 LEU    5  CD2 : 19 CT
 LEU    5  H   : 17 H
 LEU    5  HA  : 20 H1
 LEU    5  HB2 : 18 HC
 LEU    5  HB3 : 18 HC
 LEU    5  HG  : 18 HC
 LEU    5 HD11 : 18 HC
 LEU    5 HD12 : 18 HC
 LEU    5 HD13 : 18 HC
 LEU    5 HD21 : 18 HC
 LEU    5 HD22 : 18 HC
 LEU    5 HD23 : 18 HC
 ILE    6  N   : 16 N
 ILE    6  CA  : 19 CT
 ILE    6  C   : 14 C
 ILE    6  O   : 15 O
 ILE    6  CB  : 19 CT
 ILE    6  CG1 : 19 CT
 ILE    6  CG2 : 19 CT
 ILE    6  CD1 : 19 CT
 ILE    6  H   : 17 H
 ILE    6  HA  : 20 H1
 ILE    6  HB  : 18 HC
 ILE    6 HG12 : 18 HC
 ILE    6 HG13 : 18 HC
 ILE    6 HG21 : 18 HC
 ILE    6 HG22 : 18 HC
 ILE    6 HG23 : 18 HC
 ILE    6 HD11 : 18 HC
 ILE    6 HD12 : 18 HC
 ILE    6 HD13 : 18 HC
 LEU    7  N   : 16 N
 LEU    7  CA  : 19 CT
 LEU    7  C   : 14 C
 LEU    7  O   : 15 O
 LEU    7  CB  : 19 CT
 LEU    7  CG  : 19 CT
 LEU    7  CD1 : 19 CT
 LEU    7  CD2 : 19 CT
 LEU    7  H   : 17 H
 LEU    7  HA  : 20 H1
 LEU    7  HB2 : 18 HC
 LEU    7  HB3 : 18 HC
 LEU    7  HG  : 18 HC
 LEU    7 HD11 : 18 HC
 LEU    7 HD12 : 18 HC
 LEU    7 HD13 : 18 HC
 LEU    7 HD21 : 18 HC
 LEU    7 HD22 : 18 HC
 LEU    7 HD23 : 18 HC
 ASN    8  N   : 16 N
 ASN    8  CA  : 19 CT
 ASN    8  C   : 14 C
 ASN    8  O   : 15 O
 ASN    8  CB  : 19 CT
 ASN    8  CG  : 14 C
 ASN    8  OD1 : 15 O
 ASN    8  ND2 : 16 N
 ASN    8  H   : 17 H
 ASN    8  HA  : 20 H1
 ASN    8  HB2 : 18 HC
 ASN    8  HB3 : 18 HC
 ASN    8 HD21 : 17 H
 ASN    8 HD22 : 17 H
 GLY    9  N   : 16 N
 GLY    9  CA  : 19 CT
 GLY    9  C   : 14 C
 GLY    9  O   : 15 O
 GLY    9  H   : 17 H
 GLY    9  HA2 : 21 H0
 GLY    9  HA3 : 21 H0
 LYS   10  N   : 16 N
 LYS   10  CA  : 19 CT
 LYS   10  C   : 14 C
 LYS   10  O   : 15 O
 LYS   10  CB  : 19 CT
 LYS   10  CG  : 19 CT
 LYS   10  CD  : 19 CT
 LYS   10  CE  : 19 CT
 LYS   10  NZ  : 40 N3
 LYS   10  H   : 17 H
 LYS   10  HA  : 20 H1
 LYS   10  HB2 : 18 HC
 LYS   10  HB3 : 18 HC
 LYS   10  HG2 : 18 HC
 LYS   10  HG3 : 18 HC
 LYS   10  HD2 : 18 HC
 LYS   10  HD3 : 18 HC
 LYS   10  HE2 : 39 HP
 LYS   10  HE3 : 39 HP
 LYS   10  HZ1 : 17 H
 LYS   10  HZ2 : 17 H
 LYS   10  HZ3 : 17 H
 THR   11  N   : 16 N
 THR   11  CA  : 19 CT
 THR   11  C   : 14 C
 THR   11  O   : 15 O
 THR   11  CB  : 19 CT
 THR   11  OG1 : 22 OH
 THR   11  CG2 : 19 CT
 THR   11  H   : 17 H
 THR   11  HA  : 20 H1
 THR   11  HB  : 20 H1
 THR   11  HG1 : 23 HO
 THR   11 HG21 : 18 HC
 THR   11 HG22 : 18 HC
 THR   11 HG23 : 18 HC
 LEU   12  N   : 16 N
 LEU   12  CA  : 19 CT
 LEU   12  C   : 14 C
 LEU   12  O   : 15 O
 LEU   12  CB  : 19 CT
 LEU   12  CG  : 19 CT
 LEU   12  CD1 : 19 CT
 LEU   12  CD2 : 19 CT
 LEU   12  H   : 17 H
 LEU   12  HA  : 20 H1
 LEU   12  HB2 : 18 HC
 LEU   12  HB3 : 18 HC
 LEU   12  HG  : 18 HC
 LEU   12 HD11 : 18 HC
 LEU   12 HD12 : 18 HC
 LEU   12 HD13 : 18 HC
 LEU   12 HD21 : 18 HC
 LEU   12 HD22 : 18 HC
 LEU   12 HD23 : 18 HC
 LYS   13  N   : 16 N
 LYS   13  CA  : 19 CT
 LYS   13  C   : 14 C
 LYS   13  O   : 15 O
 LYS   13  CB  : 19 CT
 LYS   13  CG  : 19 CT
 LYS   13  CD  : 19 CT
 LYS   13  CE  : 19 CT
 LYS   13  NZ  : 40 N3
 LYS   13  H   : 17 H
 LYS   13  HA  : 20 H1
 LYS   13  HB2 : 18 HC
 LYS   13  HB3 : 18 HC
 LYS   13  HG2 : 18 HC
 LYS   13  HG3 : 18 HC
 LYS   13  HD2 : 18 HC
 LYS   13  HD3 : 18 HC
 LYS   13  HE2 : 39 HP
 LYS   13  HE3 : 39 HP
 LYS   13  HZ1 : 17 H
 LYS   13  HZ2 : 17 H
 LYS   13  HZ3 : 17 H
 GLY   14  N   : 16 N
 GLY   14  CA  : 19 CT
 GLY   14  C   : 14 C
 GLY   14  O   : 15 O
 GLY   14  H   : 17 H
 GLY   14  HA2 : 21 H0
 GLY   14  HA3 : 21 H0
 GLU   15  N   : 16 N
 GLU   15  CA  : 19 CT
 GLU   15  C   : 14 C
 GLU   15  O   : 15 O
 GLU   15  CB  : 19 CT
 GLU   15  CG  : 19 CT
 GLU   15  CD  : 14 C
 GLU   15  OE1 : 38 O2
 GLU   15  OE2 : 38 O2
 GLU   15  H   : 17 H
 GLU   15  HA  : 20 H1
 GLU   15  HB2 : 18 HC
 GLU   15  HB3 : 18 HC
 GLU   15  HG2 : 18 HC
 GLU   15  HG3 : 18 HC
 THR   16  N   : 16 N
 THR   16  CA  : 19 CT
 THR   16  C   : 14 C
 THR   16  O   : 15 O
 THR   16  CB  : 19 CT
 THR   16  OG1 : 22 OH
 THR   16  CG2 : 19 CT
 THR   16  H   : 17 H
 THR   16  HA  : 20 H1
 THR   16  HB  : 20 H1
 THR   16  HG1 : 23 HO
 THR   16 HG21 : 18 HC
 THR   16 HG22 : 18 HC
 THR   16 HG23 : 18 HC
 THR   17  N   : 16 N
 THR   17  CA  : 19 CT
 THR   17  C   : 14 C
 THR   17  O   : 15 O
 THR   17  CB  : 19 CT
 THR   17  OG1 : 22 OH
 THR   17  CG2 : 19 CT
 THR   17  H   : 17 H
 THR   17  HA  : 20 H1
 THR   17  HB  : 20 H1
 THR   17  HG1 : 23 HO
 THR   17 HG21 : 18 HC
 THR   17 HG22 : 18 HC
 THR   17 HG23 : 18 HC
 THR   18  N   : 16 N
 THR   18  CA  : 19 CT
 THR   18  C   : 14 C
 THR   18  O   : 15 O
 THR   18  CB  : 19 CT
 THR   18  OG1 : 22 OH
 THR   18  CG2 : 19 CT
 THR   18  H   : 17 H
 THR   18  HA  : 20 H1
 THR   18  HB  : 20 H1
 THR   18  HG1 : 23 HO
 THR   18 HG21 : 18 HC
 THR   18 HG22 : 18 HC
 THR   18 HG23 : 18 HC
 GLU   19  N   : 16 N
 GLU   19  CA  : 19 CT
 GLU   19  C   : 14 C
 GLU   19  O   : 15 O
 GLU   19  CB  : 19 CT
 GLU   19  CG  : 19 CT
 GLU   19  CD  : 14 C
 GLU   19  OE1 : 38 O2
 GLU   19  OE2 : 38 O2
 GLU   19  H   : 17 H
 GLU   19  HA  : 20 H1
 GLU   19  HB2 : 18 HC
 GLU   19  HB3 : 18 HC
 GLU   19  HG2 : 18 HC
 GLU   19  HG3 : 18 HC
 ALA   20  N   : 16 N
 ALA   20  CA  : 19 CT
 ALA   20  C   : 14 C
 ALA   20  O   : 15 O
 ALA   20  CB  : 19 CT
 ALA   20  H   : 17 H
 ALA   20  HA  : 20 H1
 ALA   20  HB1 : 18 HC
 ALA   20  HB2 : 18 HC
 ALA   20  HB3 : 18 HC
 VAL   21  N   : 16 N
 VAL   21  CA  : 19 CT
 VAL   21  C   : 14 C
 VAL   21  O   : 15 O
 VAL   21  CB  : 19 CT
 VAL   21  CG1 : 19 CT
 VAL   21  CG2 : 19 CT
 VAL   21  H   : 17 H
 VAL   21  HA  : 20 H1
 VAL   21  HB  : 18 HC
 VAL   21 HG11 : 18 HC
 VAL   21 HG12 : 18 HC
 VAL   21 HG13 : 18 HC
 VAL   21 HG21 : 18 HC
 VAL   21 HG22 : 18 HC
 VAL   21 HG23 : 18 HC
 ASP   22  N   : 16 N
 ASP   22  CA  : 19 CT
 ASP   22  C   : 14 C
 ASP   22  O   : 15 O
 ASP   22  CB  : 19 CT
 ASP   22  CG  : 14 C
 ASP   22  OD1 : 38 O2
 ASP   22  OD2 : 38 O2
 ASP   22  H   : 17 H
 ASP   22  HA  : 20 H1
 ASP   22  HB2 : 18 HC
 ASP   22  HB3 : 18 HC
 ALA   23  N   : 16 N
 ALA   23  CA  : 19 CT
 ALA   23  C   : 14 C
 ALA   23  O   : 15 O
 ALA   23  CB  : 19 CT
 ALA   23  H   : 17 H
 ALA   23  HA  : 20 H1
 ALA   23  HB1 : 18 HC
 ALA   23  HB2 : 18 HC
 ALA   23  HB3 : 18 HC
 ALA   24  N   : 16 N
 ALA   24  CA  : 19 CT
 ALA   24  C   : 14 C
 ALA   24  O   : 15 O
 ALA   24  CB  : 19 CT
 ALA   24  H   : 17 H
 ALA   24  HA  : 20 H1
 ALA   24  HB1 : 18 HC
 ALA   24  HB2 : 18 HC
 ALA   24  HB3 : 18 HC
 THR   25  N   : 16 N
 THR   25  CA  : 19 CT
 THR   25  C   : 14 C
 THR   25  O   : 15 O
 THR   25  CB  : 19 CT
 THR   25  OG1 : 22 OH
 THR   25  CG2 : 19 CT
 THR   25  H   : 17 H
 THR   25  HA  : 20 H1
 THR   25  HB  : 20 H1
 THR   25  HG1 : 23 HO
 THR   25 HG21 : 18 HC
 THR   25 HG22 : 18 HC
 THR   25 HG23 : 18 HC
 ALA   26  N   : 16 N
 ALA   26  CA  : 19 CT
 ALA   26  C   : 14 C
 ALA   26  O   : 15 O
 ALA   26  CB  : 19 CT
 ALA   26  H   : 17 H
 ALA   26  HA  : 20 H1
 ALA   26  HB1 : 18 HC
 ALA   26  HB2 : 18 HC
 ALA   26  HB3 : 18 HC
 GLU   27  N   : 16 N
 GLU   27  CA  : 19 CT
 GLU   27  C   : 14 C
 GLU   27  O   : 15 O
 GLU   27  CB  : 19 CT
 GLU   27  CG  : 19 CT
 GLU   27  CD  : 14 C
 GLU   27  OE1 : 38 O2
 GLU   27  OE2 : 38 O2
 GLU   27  H   : 17 H
 GLU   27  HA  : 20 H1
 GLU   27  HB2 : 18 HC
 GLU   27  HB3 : 18 HC
 GLU   27  HG2 : 18 HC
 GLU   27  HG3 : 18 HC
 LYS   28  N   : 16 N
 LYS   28  CA  : 19 CT
 LYS   28  C   : 14 C
 LYS   28  O   : 15 O
 LYS   28  CB  : 19 CT
 LYS   28  CG  : 19 CT
 LYS   28  CD  : 19 CT
 LYS   28  CE  : 19 CT
 LYS   28  NZ  : 40 N3
 LYS   28  H   : 17 H
 LYS   28  HA  : 20 H1
 LYS   28  HB2 : 18 HC
 LYS   28  HB3 : 18 HC
 LYS   28  HG2 : 18 HC
 LYS   28  HG3 : 18 HC
 LYS   28  HD2 : 18 HC
 LYS   28  HD3 : 18 HC
 LYS   28  HE2 : 39 HP
 LYS   28  HE3 : 39 HP
 LYS   28  HZ1 : 17 H
 LYS   28  HZ2 : 17 H
 LYS   28  HZ3 : 17 H
 VAL   29  N   : 16 N
 VAL   29  CA  : 19 CT
 VAL   29  C   : 14 C
 VAL   29  O   : 15 O
 VAL   29  CB  : 19 CT
 VAL   29  CG1 : 19 CT
 VAL   29  CG2 : 19 CT
 VAL   29  H   : 17 H
 VAL   29  HA  : 20 H1
 VAL   29  HB  : 18 HC
 VAL   29 HG11 : 18 HC
 VAL   29 HG12 : 18 HC
 VAL   29 HG13 : 18 HC
 VAL   29 HG21 : 18 HC
 VAL   29 HG22 : 18 HC
 VAL   29 HG23 : 18 HC
 PHE   30  N   : 16 N
 PHE   30  CA  : 19 CT
 PHE   30  C   : 14 C
 PHE   30  O   : 15 O
 PHE   30  CB  : 19 CT
 PHE   30  CG  : 25 CA
 PHE   30  CD1 : 25 CA
 PHE   30  CD2 : 25 CA
 PHE   30  CE1 : 25 CA
 PHE   30  CE2 : 25 CA
 PHE   30  CZ  : 25 CA
 PHE   30  H   : 17 H
 PHE   30  HA  : 20 H1
 PHE   30  HB2 : 18 HC
 PHE   30  HB3 : 18 HC
 PHE   30  HD1 : 36 HA
 PHE   30  HD2 : 36 HA
 PHE   30  HE1 : 36 HA
 PHE   30  HE2 : 36 HA
 PHE   30  HZ  : 36 HA
 LYS   31  N   : 16 N
 LYS   31  CA  : 19 CT
 LYS   31  C   : 14 C
 LYS   31  O   : 15 O
 LYS   31  CB  : 19 CT
 LYS   31  CG  : 19 CT
 LYS   31  CD  : 19 CT
 LYS   31  CE  : 19 CT
 LYS   31  NZ  : 40 N3
 LYS   31  H   : 17 H
 LYS   31  HA  : 20 H1
 LYS   31  HB2 : 18 HC
 LYS   31  HB3 : 18 HC
 LYS   31  HG2 : 18 HC
 LYS   31  HG3 : 18 HC
 LYS   31  HD2 : 18 HC
 LYS   31  HD3 : 18 HC
 LYS   31  HE2 : 39 HP
 LYS   31  HE3 : 39 HP
 LYS   31  HZ1 : 17 H
 LYS   31  HZ2 : 17 H
 LYS   31  HZ3 : 17 H
 GLN   32  N   : 16 N
 GLN   32  CA  : 19 CT
 GLN   32  C   : 14 C
 GLN   32  O   : 15 O
 GLN   32  CB  : 19 CT
 GLN   32  CG  : 19 CT
 GLN   32  CD  : 14 C
 GLN   32  OE1 : 15 O
 GLN   32  NE2 : 16 N
 GLN   32  H   : 17 H
 GLN   32  HA  : 20 H1
 GLN   32  HB2 : 18 HC
 GLN   32  HB3 : 18 HC
 GLN   32  HG2 : 18 HC
 GLN   32  HG3 : 18 HC
 GLN   32 HE21 : 17 H
 GLN   32 HE22 : 17 H
 TYR   33  N   : 16 N
 TYR   33  CA  : 19 CT
 TYR   33  C   : 14 C
 TYR   33  O   : 15 O
 TYR   33  CB  : 19 CT
 TYR   33  CG  : 25 CA
 TYR   33  CD1 : 25 CA
 TYR   33  CD2 : 25 CA
 TYR   33  CE1 : 25 CA
 TYR   33  CE2 : 25 CA
 TYR   33  CZ  : 14 C
 TYR   33  OH  : 22 OH
 TYR   33  H   : 17 H
 TYR   33  HA  : 20 H1
 TYR   33  HB2 : 18 HC
 TYR   33  HB3 : 18 HC
 TYR   33  HD1 : 36 HA
 TYR   33  HD2 : 36 HA
 TYR   33  HE1 : 36 HA
 TYR   33  HE2 : 36 HA
 TYR   33  HH  : 23 HO
 ALA   34  N   : 16 N
 ALA   34  CA  : 19 CT
 ALA   34  C   : 14 C
 ALA   34  O   : 15 O
 ALA   34  CB  : 19 CT
 ALA   34  H   : 17 H
 ALA   34  HA  : 20 H1
 ALA   34  HB1 : 18 HC
 ALA   34  HB2 : 18 HC
 ALA   34  HB3 : 18 HC
 ASN   35  N   : 16 N
 ASN   35  CA  : 19 CT
 ASN   35  C   : 14 C
 ASN   35  O   : 15 O
 ASN   35  CB  : 19 CT
 ASN   35  CG  : 14 C
 ASN   35  OD1 : 15 O
 ASN   35  ND2 : 16 N
 ASN   35  H   : 17 H
 ASN   35  HA  : 20 H1
 ASN   35  HB2 : 18 HC
 ASN   35  HB3 : 18 HC
 ASN   35 HD21 : 17 H
 ASN   35 HD22 : 17 H
 ASP   36  N   : 16 N
 ASP   36  CA  : 19 CT
 ASP   36  C   : 14 C
 ASP   36  O   : 15 O
 ASP   36  CB  : 19 CT
 ASP   36  CG  : 14 C
 ASP   36  OD1 : 38 O2
 ASP   36  OD2 : 38 O2
 ASP   36  H   : 17 H
 ASP   36  HA  : 20 H1
 ASP   36  HB2 : 18 HC
 ASP   36  HB3 : 18 HC
 ASN   37  N   : 16 N
 ASN   37  CA  : 19 CT
 ASN   37  C   : 14 C
 ASN   37  O   : 15 O
 ASN   37  CB  : 19 CT
 ASN   37  CG  : 14 C
 ASN   37  OD1 : 15 O
 ASN   37  ND2 : 16 N
 ASN   37  H   : 17 H
 ASN   37  HA  : 20 H1
 ASN   37  HB2 : 18 HC
 ASN   37  HB3 : 18 HC
 ASN   37 HD21 : 17 H
 ASN   37 HD22 : 17 H
 GLY   38  N   : 16 N
 GLY   38  CA  : 19 CT
 GLY   38  C   : 14 C
 GLY   38  O   : 15 O
 GLY   38  H   : 17 H
 GLY   38  HA2 : 21 H0
 GLY   38  HA3 : 21 H0
 VAL   39  N   : 16 N
 VAL   39  CA  : 19 CT
 VAL   39  C   : 14 C
 VAL   39  O   : 15 O
 VAL   39  CB  : 19 CT
 VAL   39  CG1 : 19 CT
 VAL   39  CG2 : 19 CT
 VAL   39  H   : 17 H
 VAL   39  HA  : 20 H1
 VAL   39  HB  : 18 HC
 VAL   39 HG11 : 18 HC
 VAL   39 HG12 : 18 HC
 VAL   39 HG13 : 18 HC
 VAL   39 HG21 : 18 HC
 VAL   39 HG22 : 18 HC
 VAL   39 HG23 : 18 HC
 ASP   40  N   : 16 N
 ASP   40  CA  : 19 CT
 ASP   40  C   : 14 C
 ASP   40  O   : 15 O
 ASP   40  CB  : 19 CT
 ASP   40  CG  : 14 C
 ASP   40  OD1 : 38 O2
 ASP   40  OD2 : 38 O2
 ASP   40  H   : 17 H
 ASP   40  HA  : 20 H1
 ASP   40  HB2 : 18 HC
 ASP   40  HB3 : 18 HC
 GLY   41  N   : 16 N
 GLY   41  CA  : 19 CT
 GLY   41  C   : 14 C
 GLY   41  O   : 15 O
 GLY   41  H   : 17 H
 GLY   41  HA2 : 21 H0
 GLY   41  HA3 : 21 H0
 GLU   42  N   : 16 N
 GLU   42  CA  : 19 CT
 GLU   42  C   : 14 C
 GLU   42  O   : 15 O
 GLU   42  CB  : 19 CT
 GLU   42  CG  : 19 CT
 GLU   42  CD  : 14 C
 GLU   42  OE1 : 38 O2
 GLU   42  OE2 : 38 O2
 GLU   42  H   : 17 H
 GLU   42  HA  : 20 H1
 GLU   42  HB2 : 18 HC
 GLU   42  HB3 : 18 HC
 GLU   42  HG2 : 18 HC
 GLU   42  HG3 : 18 HC
 TRP   43  N   : 16 N
 TRP   43  CA  : 19 CT
 TRP   43  C   : 14 C
 TRP   43  O   : 15 O
 TRP   43  CB  : 19 CT
 TRP   43  CG  : 34 C*
 TRP   43  CD1 : 33 CW
 TRP   43  CD2 : 37 CB
 TRP   43  NE1 : 27 NA
 TRP   43  CE2 : 35 CN
 TRP   43  CE3 : 25 CA
 TRP   43  CZ2 : 25 CA
 TRP   43  CZ3 : 25 CA
 TRP   43  CH2 : 25 CA
 TRP   43  H   : 17 H
 TRP   43  HA  : 20 H1
 TRP   43  HB2 : 18 HC
 TRP   43  HB3 : 18 HC
 TRP   43  HD1 : 32 H4
 TRP   43  HE1 : 17 H
 TRP   43  HE3 : 36 HA
 TRP   43  HZ2 : 36 HA
 TRP   43  HZ3 : 36 HA
 TRP   43  HH2 : 36 HA
 THR   44  N   : 16 N
 THR   44  CA  : 19 CT
 THR   44  C   : 14 C
 THR   44  O   : 15 O
 THR   44  CB  : 19 CT
 THR   44  OG1 : 22 OH
 THR   44  CG2 : 19 CT
 THR   44  H   : 17 H
 THR   44  HA  : 20 H1
 THR   44  HB  : 20 H1
 THR   44  HG1 : 23 HO
 THR   44 HG21 : 18 HC
 THR   44 HG22 : 18 HC
 THR   44 HG23 : 18 HC
 TYR   45  N   : 16 N
 TYR   45  CA  : 19 CT
 TYR   45  C   : 14 C
 TYR   45  O   : 15 O
 TYR   45  CB  : 19 CT
 TYR   45  CG  : 25 CA
 TYR   45  CD1 : 25 CA
 TYR   45  CD2 : 25 CA
 TYR   45  CE1 : 25 CA
 TYR   45  CE2 : 25 CA
 TYR   45  CZ  : 14 C
 TYR   45  OH  : 22 OH
 TYR   45  H   : 17 H
 TYR   45  HA  : 20 H1
 TYR   45  HB2 : 18 HC
 TYR   45  HB3 : 18 HC
 TYR   45  HD1 : 36 HA
 TYR   45  HD2 : 36 HA
 TYR   45  HE1 : 36 HA
 TYR   45  HE2 : 36 HA
 TYR   45  HH  : 23 HO
 ASP   46  N   : 16 N
 ASP   46  CA  : 19 CT
 ASP   46  C   : 14 C
 ASP   46  O   : 15 O
 ASP   46  CB  : 19 CT
 ASP   46  CG  : 14 C
 ASP   46  OD1 : 38 O2
 ASP   46  OD2 : 38 O2
 ASP   46  H   : 17 H
 ASP   46  HA  : 20 H1
 ASP   46  HB2 : 18 HC
 ASP   46  HB3 : 18 HC
 ASP   47  N   : 16 N
 ASP   47  CA  : 19 CT
 ASP   47  C   : 14 C
 ASP   47  O   : 15 O
 ASP   47  CB  : 19 CT
 ASP   47  CG  : 14 C
 ASP   47  OD1 : 38 O2
 ASP   47  OD2 : 38 O2
 ASP   47  H   : 17 H
 ASP   47  HA  : 20 H1
 ASP   47  HB2 : 18 HC
 ASP   47  HB3 : 18 HC
 ALA   48  N   : 16 N
 ALA   48  CA  : 19 CT
 ALA   48  C   : 14 C
 ALA   48  O   : 15 O
 ALA   48  CB  : 19 CT
 ALA   48  H   : 17 H
 ALA   48  HA  : 20 H1
 ALA   48  HB1 : 18 HC
 ALA   48  HB2 : 18 HC
 ALA   48  HB3 : 18 HC
 THR   49  N   : 16 N
 THR   49  CA  : 19 CT
 THR   49  C   : 14 C
 THR   49  O   : 15 O
 THR   49  CB  : 19 CT
 THR   49  OG1 : 22 OH
 THR   49  CG2 : 19 CT
 THR   49  H   : 17 H
 THR   49  HA  : 20 H1
 THR   49  HB  : 20 H1
 THR   49  HG1 : 23 HO
 THR   49 HG21 : 18 HC
 THR   49 HG22 : 18 HC
 THR   49 HG23 : 18 HC
 LYS   50  N   : 16 N
 LYS   50  CA  : 19 CT
 LYS   50  C   : 14 C
 LYS   50  O   : 15 O
 LYS   50  CB  : 19 CT
 LYS   50  CG  : 19 CT
 LYS   50  CD  : 19 CT
 LYS   50  CE  : 19 CT
 LYS   50  NZ  : 40 N3
 LYS   50  H   : 17 H
 LYS   50  HA  : 20 H1
 LYS   50  HB2 : 18 HC
 LYS   50  HB3 : 18 HC
 LYS   50  HG2 : 18 HC
 LYS   50  HG3 : 18 HC
 LYS   50  HD2 : 18 HC
 LYS   50  HD3 : 18 HC
 LYS   50  HE2 : 39 HP
 LYS   50  HE3 : 39 HP
 LYS   50  HZ1 : 17 H
 LYS   50  HZ2 : 17 H
 LYS   50  HZ3 : 17 H
 THR   51  N   : 16 N
 THR   51  CA  : 19 CT
 THR   51  C   : 14 C
 THR   51  O   : 15 O
 THR   51  CB  : 19 CT
 THR   51  OG1 : 22 OH
 THR   51  CG2 : 19 CT
 THR   51  H   : 17 H
 THR   51  HA  : 20 H1
 THR   51  HB  : 20 H1
 THR   51  HG1 : 23 HO
 THR   51 HG21 : 18 HC
 THR   51 HG22 : 18 HC
 THR   51 HG23 : 18 HC
 PHE   52  N   : 16 N
 PHE   52  CA  : 19 CT
 PHE   52  C   : 14 C
 PHE   52  O   : 15 O
 PHE   52  CB  : 19 CT
 PHE   52  CG  : 25 CA
 PHE   52  CD1 : 25 CA
 PHE   52  CD2 : 25 CA
 PHE   52  CE1 : 25 CA
 PHE   52  CE2 : 25 CA
 PHE   52  CZ  : 25 CA
 PHE   52  H   : 17 H
 PHE   52  HA  : 20 H1
 PHE   52  HB2 : 18 HC
 PHE   52  HB3 : 18 HC
 PHE   52  HD1 : 36 HA
 PHE   52  HD2 : 36 HA
 PHE   52  HE1 : 36 HA
 PHE   52  HE2 : 36 HA
 PHE   52  HZ  : 36 HA
 THR   53  N   : 16 N
 THR   53  CA  : 19 CT
 THR   53  C   : 14 C
 THR   53  O   : 15 O
 THR   53  CB  : 19 CT
 THR   53  OG1 : 22 OH
 THR   53  CG2 : 19 CT
 THR   53  H   : 17 H
 THR   53  HA  : 20 H1
 THR   53  HB  : 20 H1
 THR   53  HG1 : 23 HO
 THR   53 HG21 : 18 HC
 THR   53 HG22 : 18 HC
 THR   53 HG23 : 18 HC
 VAL   54  N   : 16 N
 VAL   54  CA  : 19 CT
 VAL   54  C   : 14 C
 VAL   54  O   : 15 O
 VAL   54  CB  : 19 CT
 VAL   54  CG1 : 19 CT
 VAL   54  CG2 : 19 CT
 VAL   54  H   : 17 H
 VAL   54  HA  : 20 H1
 VAL   54  HB  : 18 HC
 VAL   54 HG11 : 18 HC
 VAL   54 HG12 : 18 HC
 VAL   54 HG13 : 18 HC
 VAL   54 HG21 : 18 HC
 VAL   54 HG22 : 18 HC
 VAL   54 HG23 : 18 HC
 THR   55  N   : 16 N
 THR   55  CA  : 19 CT
 THR   55  C   : 14 C
 THR   55  O   : 15 O
 THR   55  CB  : 19 CT
 THR   55  OG1 : 22 OH
 THR   55  CG2 : 19 CT
 THR   55  H   : 17 H
 THR   55  HA  : 20 H1
 THR   55  HB  : 20 H1
 THR   55  HG1 : 23 HO
 THR   55 HG21 : 18 HC
 THR   55 HG22 : 18 HC
 THR   55 HG23 : 18 HC
 GLU   56  N   : 16 N
 GLU   56  CA  : 19 CT
 GLU   56  C   : 14 C
 GLU   56  O   : 38 O2
 GLU   56  CB  : 19 CT
 GLU   56  CG  : 19 CT
 GLU   56  CD  : 14 C
 GLU   56  OE1 : 38 O2
 GLU   56  OE2 : 38 O2
 GLU   56  OXT : 38 O2
 GLU   56  H   : 17 H
 GLU   56  HA  : 20 H1
 GLU   56  HB2 : 18 HC
 GLU   56  HB3 : 18 HC
 GLU   56  HG2 : 18 HC
 GLU   56  HG3 : 18 HC
