# Running ./ap_SWAligner test_inputs/ferrodoxins.fasta test_inputs/ferrodoxins.fasta BLOSUM80
               * * *  **  *   *********  **     * ** ****  **  **  **  ** ***     ** *
1a6l:A       1 AFVVTDNCIKCKYCDCVEVCPVDCFYEGPNFLVIHPDECIDCALCEPECPAQAIFSEDEVPEDMQEFIQLN  71
1bc6:A       1 AYVITEPCIGTKDASCVEVCPVDCIHEGEDQYYIDPDVCIDCGACEAVCPVSAIYHEDFVPEEWKSYIQKN  71

               * *     ** *    *  ****     *  *   * ** ** *  ******  **
1a6l:A       1 AFVVTDN-CIKCKYCDCVEVCPVDCFY-EGPNFLVIHPDECIDCALCEPECPAQAI  54
SFL95851.1 335 AYVIDEEACIGCS--KCSRVCPVGAISGEIKNPFTIDPDVCIACGACEPECPVSAI 388

               * * *  **  *   *********  **     * ** ****  **  **  **  ** ***     ** *
1axq:A       1 AFVVTDNCIKCKYTDCVEVCPVDCFYEGPNFLVIHPDECIDCALCEPECPAQAIFSEDEVPEDMQEFIQLN  71
1bc6:A       1 AYVITEPCIGTKDASCVEVCPVDCIHEGEDQYYIDPDVCIDCGACEAVCPVSAIYHEDFVPEEWKSYIQKN  71

               * *     ** *    *  ****     *  *   * ** ** *  ******  **
1axq:A       1 AFVVTDN-CIKCKYTDCVEVCPVDCFY-EGPNFLVIHPDECIDCALCEPECPAQAI  54
SFL95851.1 335 AYVIDEEACIGC--SKCSRVCPVGAISGEIKNPFTIDPDVCIACGACEPECPVSAI 388

               * * *  **  *   *********  **     * ** ****  **  **  **  ** ***     ** *
1b0t:A       1 AFVVTDNCIKCKYTKCVEVCPVDCFYEGPNFLVIHPDECIDCALCEPECPAQAIFSEDEVPEDMQEFIQLN  71
1bc6:A       1 AYVITEPCIGTKDASCVEVCPVDCIHEGEDQYYIDPDVCIDCGACEAVCPVSAIYHEDFVPEEWKSYIQKN  71

               * *     ** *   **  ****     *  *   * ** ** *  ******  **
1b0t:A       1 AFVVTDN-CIKCKYTKCVEVCPVDCFY-EGPNFLVIHPDECIDCALCEPECPAQAI  54
SFL95851.1 335 AYVIDEEACIGC--SKCSRVCPVGAISGEIKNPFTIDPDVCIACGACEPECPVSAI 388

               * * *  **  *   *********  **     * ** * **  **  **  **  ** ***     ** *
1b0v:A       1 AFVVTDNCIKCKYTDCVEVCPVDCFYEGPNFLVIHPDECNDCALCEPECPAQAIFSEDEVPEDMQEFIQLN  71
1bc6:A       1 AYVITEPCIGTKDASCVEVCPVDCIHEGEDQYYIDPDVCIDCGACEAVCPVSAIYHEDFVPEEWKSYIQKN  71

               * *     ** *    *  ****     *  *   * ** *  *  ******  **
1b0v:A       1 AFVVTDN-CIKCKYTDCVEVCPVDCFY-EGPNFLVIHPDECNDCALCEPECPAQAI  54
SFL95851.1 335 AYVIDEEACIGC--SKCSRVCPVGAISGEIKNPFTIDPDVCIACGACEPECPVSAI 388

               * * *  **  *   *********  **     * ** * **  **  **  **  ** ***     ** *
1b0v:B       1 AFVVTDNCIKCKYTDCVEVCPVDCFYEGPNFLVIHPDECNDCALCEPECPAQAIFSEDEVPEDMQEFIQLN  71
1bc6:A       1 AYVITEPCIGTKDASCVEVCPVDCIHEGEDQYYIDPDVCIDCGACEAVCPVSAIYHEDFVPEEWKSYIQKN  71

               * *     ** *    *  ****     *  *   * ** *  *  ******  **
1b0v:B       1 AFVVTDN-CIKCKYTDCVEVCPVDCFY-EGPNFLVIHPDECNDCALCEPECPAQAI  54
SFL95851.1 335 AYVIDEEACIGC--SKCSRVCPVGAISGEIKNPFTIDPDVCIACGACEPECPVSAI 388

               * * *  **  *   *********  **     * ** * **  **  **  **  ** ***     ** *
1b0v:C       1 AFVVTDNCIKCKYTDCVEVCPVDCFYEGPNFLVIHPDECNDCALCEPECPAQAIFSEDEVPEDMQEFIQLN  71
1bc6:A       1 AYVITEPCIGTKDASCVEVCPVDCIHEGEDQYYIDPDVCIDCGACEAVCPVSAIYHEDFVPEEWKSYIQKN  71

               * *     ** *    *  ****     *  *   * ** *  *  ******  **
1b0v:C       1 AFVVTDN-CIKCKYTDCVEVCPVDCFY-EGPNFLVIHPDECNDCALCEPECPAQAI  54
SFL95851.1 335 AYVIDEEACIGC--SKCSRVCPVGAISGEIKNPFTIDPDVCIACGACEPECPVSAI 388

               * * *  **  *   *********  **     * ** * **  **  **  **  ** ***     ** *
1b0v:D       1 AFVVTDNCIKCKYTDCVEVCPVDCFYEGPNFLVIHPDECNDCALCEPECPAQAIFSEDEVPEDMQEFIQLN  71
1bc6:A       1 AYVITEPCIGTKDASCVEVCPVDCIHEGEDQYYIDPDVCIDCGACEAVCPVSAIYHEDFVPEEWKSYIQKN  71

               * *     ** *    *  ****     *  *   * ** *  *  ******  **
1b0v:D       1 AFVVTDN-CIKCKYTDCVEVCPVDCFY-EGPNFLVIHPDECNDCALCEPECPAQAI  54
SFL95851.1 335 AYVIDEEACIGC--SKCSRVCPVGAISGEIKNPFTIDPDVCIACGACEPECPVSAI 388

               *****************************************************************************
1bc6:A       1 AYVITEPCIGTKDASCVEVCPVDCIHEGEDQYYIDPDVCIDCGACEAVCPVSAIYHEDFVPEEWKSYIQKNRDFFKK  77
1bc6:A       1 AYVITEPCIGTKDASCVEVCPVDCIHEGEDQYYIDPDVCIDCGACEAVCPVSAIYHEDFVPEEWKSYIQKNRDFFKK  77

               ****  * ***     *  ****  *  *      ******* *****  ******
1bc6:A       1 AYVI-TEPCIGTKDASCVEVCPVDCIH-EGEDQYYIDPDVCIDCGACEAVCPVSAI  54
SFL95851.1 335 AYVIDEEACIGC--SKCSRVCPVGAISGEIKNPFTIDPDVCIACGACEPECPVSAI 388

               *****************************************************************************
1bd6:A       1 AYVITEPCIGTKDASCVEVCPVDCIHEGEDQYYIDPDVCIDCGACEAVCPVSAIYHEDFVPEEWKSYIQKNRDFFKK  77
1bc6:A       1 AYVITEPCIGTKDASCVEVCPVDCIHEGEDQYYIDPDVCIDCGACEAVCPVSAIYHEDFVPEEWKSYIQKNRDFFKK  77

               ****  * ***     *  ****  *  *      ******* *****  ******
1bd6:A       1 AYVI-TEPCIGTKDASCVEVCPVDCIH-EGEDQYYIDPDVCIDCGACEAVCPVSAI  54
SFL95851.1 335 AYVIDEEACIGC--SKCSRVCPVGAISGEIKNPFTIDPDVCIACGACEPECPVSAI 388

               ************ ****************************************************************
1bqx:A       1 AYVITEPCIGTKCASCVEVCPVDCIHEGEDQYYIDPDVCIDCGACEAVCPVSAIYHEDFVPEEWKSYIQKNRDFFKK  77
1bc6:A       1 AYVITEPCIGTKDASCVEVCPVDCIHEGEDQYYIDPDVCIDCGACEAVCPVSAIYHEDFVPEEWKSYIQKNRDFFKK  77

               ****  * ***  *  *  ****  *  *      ******* *****  ******
1bqx:A       1 AYVI-TEPCIGTKCASCVEVCPVDCIH-EGEDQYYIDPDVCIDCGACEAVCPVSAI  54
SFL95851.1 335 AYVIDEEACIG--CSKCSRVCPVGAISGEIKNPFTIDPDVCIACGACEPECPVSAI 388

               ** *   *       *   ***  *  *     ** * ***** *  **** *   *
1clf:A       1 AYKIADSCVSC--GACASECPVNAISQGDSIFVIDADTCIDCGNCANVCPVGAPVQE  55
1bc6:A       1 AYVITEPCIGTKDASCVEVCPVDCIHEGEDQYYIDPDVCIDCGACEAVCPVSAIYHE  57

               ** *    *  *  *   *** ***      * ** * ** ** *   *** *
1clf:A       1 AYKI-ADSCVSCGACASECPVNAIS-QGDSIFVIDADTCIDCGNCANVCPVGA  51
SFL95851.1 335 AYVIDEEACIGCSKCSRVCPVGAISGEIKNPFTIDPDVCIACGACEPECPVSA 387

               * * *  **  *   *********  **     * ** ****  **  **  **  ** ***     ** *
1d3w:A       1 AFVVTDNCIKCKYTECVEVCPVDCFYEGPNFLVIHPDECIDCALCEPECPAQAIFSEDEVPEDMQEFIQLN  71
1bc6:A       1 AYVITEPCIGTKDASCVEVCPVDCIHEGEDQYYIDPDVCIDCGACEAVCPVSAIYHEDFVPEEWKSYIQKN  71

               * *     ** *    *  ****     *  *   * ** ** *  ******  **
1d3w:A       1 AFVVTDN-CIKCKYTECVEVCPVDCFY-EGPNFLVIHPDECIDCALCEPECPAQAI  54
SFL95851.1 335 AYVIDEEACIGC--SKCSRVCPVGAISGEIKNPFTIDPDVCIACGACEPECPVSAI 388

               ****   **      *   *** ** **   * ** * ***** *  **** *   **
1dur:A       1 AYVINDSCIAC--GACKPECPVNCIQEGS-IYAIDADSCIDCGSCASVCPVGAPNPED  55
1bc6:A       1 AYVITEPCIGTKDASCVEVCPVDCIHEGEDQYYIDPDVCIDCGACEAVCPVSAIYHED  58

               ****    ** *  *   ***  *  * *     ** * ** ** *   *** *
1dur:A       1 AYVIN-DSCIACGACKPECPVNCIQEGSI---YAIDADSCIDCGSCASVCPVGA  50
SFL95851.1 335 AYVIDEEACIGCSKCSRVCPVGAI-SGEIKNPFTIDPDVCIACGACEPECPVSA 387

               * * *  **  *   *********  **     * ** ****  **  **  **  ** ***     ** *
1f5b:A       1 AHVVTDNCIKCKYTDCVEVCPVDCFYEGPNFLVIHPDECIDCALCEPECPAQAIFSEDEVPEDMQEFIQLN  71
1bc6:A       1 AYVITEPCIGTKDASCVEVCPVDCIHEGEDQYYIDPDVCIDCGACEAVCPVSAIYHEDFVPEEWKSYIQKN  71

               * *     ** *    *  ****     *  *   * ** ** *  ******  **
1f5b:A       1 AHVVTDN-CIKCKYTDCVEVCPVDCFY-EGPNFLVIHPDECIDCALCEPECPAQAI  54
SFL95851.1 335 AYVIDEEACIGC--SKCSRVCPVGAISGEIKNPFTIDPDVCIACGACEPECPVSAI 388

               * * *  **  *   *********  **     * ** ****  **  **  **  ** ***     ** *
1f5c:A       1 AFVVTDNCIKCKYTDCVEVCPVDCHYEGPNFLVIHPDECIDCALCEPECPAQAIFSEDEVPEDMQEFIQLN  71
1bc6:A       1 AYVITEPCIGTKDASCVEVCPVDCIHEGEDQYYIDPDVCIDCGACEAVCPVSAIYHEDFVPEEWKSYIQKN  71

               * *     ** *    *  ****     *  *   * ** ** *  ******  **
1f5c:A       1 AFVVTDN-CIKCKYTDCVEVCPVDC-HYEGPNFLVIHPDECIDCALCEPECPAQAI  54
SFL95851.1 335 AYVIDEEACIGC--SKCSRVCPVGAISGEIKNPFTIDPDVCIACGACEPECPVSAI 388

               **** * **      *   **** *  *   * ** * *******  **** *
1fca:A       1 AYVINEACISC--GACEPECPVDAISQGGSRYVIDADTCIDCGACAGVCPVDA  51
1bc6:A       1 AYVITEPCIGTKDASCVEVCPVDCIHEGEDQYYIDPDVCIDCGACEAVCPVSA  53

               ****  **** *  *   *** ***        ** * ** ****   *** *
1fca:A       1 AYVIN-EACISCGACEPECPVDAIS-QGGSRYVIDADTCIDCGACAGVCPVDA  51
SFL95851.1 335 AYVIDEEACIGCSKCSRVCPVGAISGEIKNPFTIDPDVCIACGACEPECPVSA 387

               * * *  **  *   **** ****  **     * ** ****  **  **  **  ** ***     ** *
1fd2:A       1 AFVVTDNCIKCKYTDCVEVAPVDCFYEGPNFLVIHPDECIDCALCEPECPAQAIFSEDEVPEDMQEFIQLN  71
1bc6:A       1 AYVITEPCIGTKDASCVEVCPVDCIHEGEDQYYIDPDVCIDCGACEAVCPVSAIYHEDFVPEEWKSYIQKN  71

               * *     ** *    *  * **     *  *   * ** ** *  ******  **
1fd2:A       1 AFVVTDN-CIKCKYTDCVEVAPVDCFY-EGPNFLVIHPDECIDCALCEPECPAQAI  54
SFL95851.1 335 AYVIDEEACIGC--SKCSRVCPVGAISGEIKNPFTIDPDVCIACGACEPECPVSAI 388

               * * *  **  *   *********  **     * ** ****  **  **  **  ** ***     ** *
1fdd:A       1 AFVVTDNCIKCKYTNCVEVCPVDCFYEGPNFLVIHPDECIDCALCEPECPAQAIFSEDEVPEDMQEFIQLN  71
1bc6:A       1 AYVITEPCIGTKDASCVEVCPVDCIHEGEDQYYIDPDVCIDCGACEAVCPVSAIYHEDFVPEEWKSYIQKN  71

               * *     ** *    *  ****     *  *   * ** ** *  ******  **
1fdd:A       1 AFVVTDN-CIKCKYTNCVEVCPVDCFY-EGPNFLVIHPDECIDCALCEPECPAQAI  54
SFL95851.1 335 AYVIDEEACIGC--SKCSRVCPVGAISGEIKNPFTIDPDVCIACGACEPECPVSAI 388

               * * *  **  *   *********  **     * ** ***   **  **  **  ** ***     ** *
1ff2:A       1 AFVVTDNCIKCKYTDCVEVCPVDCFYEGPNFLVIHPDECIDDALCEPECPAQAIFSEDEVPEDMQEFIQLN  71
1bc6:A       1 AYVITEPCIGTKDASCVEVCPVDCIHEGEDQYYIDPDVCIDCGACEAVCPVSAIYHEDFVPEEWKSYIQKN  71

               * *     ** *    *  ****     *  *   * ** **    ******  **
1ff2:A       1 AFVVTDN-CIKCKYTDCVEVCPVDCFY-EGPNFLVIHPDECIDDALCEPECPAQAI  54
SFL95851.1 335 AYVIDEEACIGC--SKCSRVCPVGAISGEIKNPFTIDPDVCIACGACEPECPVSAI 388

               *** *  **  *   *********  **     * ** ****  **  **  **  ** ***     ** *
1frh:A       1 AYVVTDNCIKCKYTDCVEVCPVDCFYEGPNFLVIHPDECIDCALCEPECPAQAIFSEDEVPEDMQEFIQLN  71
1bc6:A       1 AYVITEPCIGTKDASCVEVCPVDCIHEGEDQYYIDPDVCIDCGACEAVCPVSAIYHEDFVPEEWKSYIQKN  71

               ***     ** *    *  ****     *  *   * ** ** *  ******  **
1frh:A       1 AYVVTDN-CIKCKYTDCVEVCPVDCFY-EGPNFLVIHPDECIDCALCEPECPAQAI  54
SFL95851.1 335 AYVIDEEACIGC--SKCSRVCPVGAISGEIKNPFTIDPDVCIACGACEPECPVSAI 388

               * * *  **  *   ******* *  **     * ** ****  **  **  **  ** ***     ** *
1fri:A       1 AFVVTDNCIKCKYTDCVEVCPVNCFYEGPNFLVIHPDECIDCALCEPECPAQAIFSEDEVPEDMQEFIQLN  71
1bc6:A       1 AYVITEPCIGTKDASCVEVCPVDCIHEGEDQYYIDPDVCIDCGACEAVCPVSAIYHEDFVPEEWKSYIQKN  71

               * *     ** *    *  ****     *  *   * ** ** *  ******  **
1fri:A       1 AFVVTDN-CIKCKYTDCVEVCPVNCFY-EGPNFLVIHPDECIDCALCEPECPAQAI  54
SFL95851.1 335 AYVIDEEACIGC--SKCSRVCPVGAISGEIKNPFTIDPDVCIACGACEPECPVSAI 388

               * * *  **  *   ********** **     * ** ****  **  **  **  ** ***     ** *
1frj:A       1 AFVVTDNCIKCKYTDCVEVCPVDCIYEGPNFLVIHPDECIDCALCEPECPAQAIFSEDEVPEDMQEFIQLN  71
1bc6:A       1 AYVITEPCIGTKDASCVEVCPVDCIHEGEDQYYIDPDVCIDCGACEAVCPVSAIYHEDFVPEEWKSYIQKN  71

               * *     ** *    *  ****  *  *  *   * ** ** *  ******  **
1frj:A       1 AFVVTDN-CIKCKYTDCVEVCPVDCIY-EGPNFLVIHPDECIDCALCEPECPAQAI  54
SFL95851.1 335 AYVIDEEACIGC--SKCSRVCPVGAISGEIKNPFTIDPDVCIACGACEPECPVSAI 388

               * * *  **  *   *********  **     **** ****  **  **  **  ** ***     ** *
1frk:A       1 AFVVTDNCIKCKYTDCVEVCPVDCFYEGPNFLVIDPDECIDCALCEPECPAQAIFSEDEVPEDMQEFIQLN  71
1bc6:A       1 AYVITEPCIGTKDASCVEVCPVDCIHEGEDQYYIDPDVCIDCGACEAVCPVSAIYHEDFVPEEWKSYIQKN  71

               * *     ** *    *  ****     *  *   **** ** *  ******  **
1frk:A       1 AFVVTDN-CIKCKYTDCVEVCPVDCFY-EGPNFLVIDPDECIDCALCEPECPAQAI  54
SFL95851.1 335 AYVIDEEACIGC--SKCSRVCPVGAISGEIKNPFTIDPDVCIACGACEPECPVSAI 388

               * * *  **  *   *********  **     * ** ****  **  **  **  ** ***     ** *
1frl:A       1 AFVVTDNCIKCKYTDCVEVCPVDCFYEGPNFLVIHPDSCIDCALCEPECPAQAIFSEDEVPEDMQEFIQLN  71
1bc6:A       1 AYVITEPCIGTKDASCVEVCPVDCIHEGEDQYYIDPDVCIDCGACEAVCPVSAIYHEDFVPEEWKSYIQKN  71

               * *     ** *    *  ****     *  *   * ** ** *  ******  **
1frl:A       1 AFVVTDN-CIKCKYTDCVEVCPVDCFY-EGPNFLVIHPDSCIDCALCEPECPAQAI  54
SFL95851.1 335 AYVIDEEACIGC--SKCSRVCPVGAISGEIKNPFTIDPDVCIACGACEPECPVSAI 388

               * * *  **  *   *********  **     * ** ****  *   **  **  ** ***     ** *
1frm:A       1 AFVVTDNCIKCKYTDCVEVCPVDCFYEGPNFLVIHPDECIDCALCAPECPAQAIFSEDEVPEDMQEFIQLN  71
1bc6:A       1 AYVITEPCIGTKDASCVEVCPVDCIHEGEDQYYIDPDVCIDCGACEAVCPVSAIYHEDFVPEEWKSYIQKN  71

               * *     ** *    *  ****     *  *   * ** ** *  * ****  **
1frm:A       1 AFVVTDN-CIKCKYTDCVEVCPVDCFY-EGPNFLVIHPDECIDCALCAPECPAQAI  54
SFL95851.1 335 AYVIDEEACIGC--SKCSRVCPVGAISGEIKNPFTIDPDVCIACGACEPECPVSAI 388

               * * *  **  *   **** ****  **     * ** ****  **  **  **  ** ***     ** *
1frx:A       1 AFVVTDNCIKCKYTDCVEVSPVDCFYEGPNFLVIHPDECIDCALCEPECPAQAIFSEDEVPEDMQEFIQLN  71
1bc6:A       1 AYVITEPCIGTKDASCVEVCPVDCIHEGEDQYYIDPDVCIDCGACEAVCPVSAIYHEDFVPEEWKSYIQKN  71

               * *     ** *    *  * **     *  *   * ** ** *  ******  **
1frx:A       1 AFVVTDN-CIKCKYTDCVEVSPVDCFY-EGPNFLVIHPDECIDCALCEPECPAQAI  54
SFL95851.1 335 AYVIDEEACIGC--SKCSRVCPVGAISGEIKNPFTIDPDVCIACGACEPECPVSAI 388

               * * *  **  *   *********  **     * ** ****  **  **  **  ** ***     ** *
1ftc:A       1 AFVVTDNCIKCKCTDCVEVCPVDCFYEGPNFLVIHPDECIDCALCEPECPAQAIFSEDEVPEDMQEFIQLN  71
1bc6:A       1 AYVITEPCIGTKDASCVEVCPVDCIHEGEDQYYIDPDVCIDCGACEAVCPVSAIYHEDFVPEEWKSYIQKN  71

               * *         *  *  ****     *  *   * ** ** *  ******  **
1ftc:A       1 AFVVTDNCIKCKCTDCVEVCPVDCFY-EGPNFLVIHPDECIDCALCEPECPAQAI  54
SFL95851.1 335 AYVIDEEACI-GCSKCSRVCPVGAISGEIKNPFTIDPDVCIACGACEPECPVSAI 388

               * * *  **  *   *********  **     * ** ****  **  **  **  ** ***     ** *
1ftc:B       1 AFVVTDNCIKCKCTDCVEVCPVDCFYEGPNFLVIHPDECIDCALCEPECPAQAIFSEDEVPEDMQEFIQLN  71
1bc6:A       1 AYVITEPCIGTKDASCVEVCPVDCIHEGEDQYYIDPDVCIDCGACEAVCPVSAIYHEDFVPEEWKSYIQKN  71

               * *         *  *  ****     *  *   * ** ** *  ******  **
1ftc:B       1 AFVVTDNCIKCKCTDCVEVCPVDCFY-EGPNFLVIHPDECIDCALCEPECPAQAI  54
SFL95851.1 335 AYVIDEEACI-GCSKCSRVCPVGAISGEIKNPFTIDPDVCIACGACEPECPVSAI 388

               * * *  **  *   *** *****  **     * ** ****  **  **  **  ** ***     ** *
1g3o:A       1 AFVVTDNCIKCKYTDCVEECPVDCFYEGPNFLVIHPDECIDCALCEPECPAQAIFSEDEVPEDMQEFIQLN  71
1bc6:A       1 AYVITEPCIGTKDASCVEVCPVDCIHEGEDQYYIDPDVCIDCGACEAVCPVSAIYHEDFVPEEWKSYIQKN  71

               * *     ** *    *   ***     *  *   * ** ** *  ******  **
1g3o:A       1 AFVVTDN-CIKCKYTDCVEECPVDCFY-EGPNFLVIHPDECIDCALCEPECPAQAI  54
SFL95851.1 335 AYVIDEEACIGC--SKCSRVCPVGAISGEIKNPFTIDPDVCIACGACEPECPVSAI 388

               * * *  **  *   *********  **     * ** ****  **  **  **  ** ***     ** *
1g6b:A       1 AFVVTDNCIKCKYTDCVEVCPVDCFYEGPNFLVIHPDECIDCALCESECPAQAIFSEDEVPEDMQEFIQLN  71
1bc6:A       1 AYVITEPCIGTKDASCVEVCPVDCIHEGEDQYYIDPDVCIDCGACEAVCPVSAIYHEDFVPEEWKSYIQKN  71

               * *     ** *    *  ****     *  *   * ** ** *  ** ***  **
1g6b:A       1 AFVVTDN-CIKCKYTDCVEVCPVDCFY-EGPNFLVIHPDECIDCALCESECPAQAI  54
SFL95851.1 335 AYVIDEEACIGC--SKCSRVCPVGAISGEIKNPFTIDPDVCIACGACEPECPVSAI 388

               * * *  **  *   *********  **     * ** ****  **  **  **  ** ***     ** *
1gao:A       1 AFVVTDNCIKCKYTDCVEVCPVDCFYEGPNFLVIHPDECIDCASCEPECPAQAIFSEDEVPEDMQEFIQLN  71
1bc6:A       1 AYVITEPCIGTKDASCVEVCPVDCIHEGEDQYYIDPDVCIDCGACEAVCPVSAIYHEDFVPEEWKSYIQKN  71

               * *     ** *    *  ****     *  *   * ** ** *  ******  **
1gao:A       1 AFVVTDN-CIKCKYTDCVEVCPVDCFY-EGPNFLVIHPDECIDCASCEPECPAQAI  54
SFL95851.1 335 AYVIDEEACIGC--SKCSRVCPVGAISGEIKNPFTIDPDVCIACGACEPECPVSAI 388

               * * *  **  *   *********  **     * ** ****  **  **  **  ** ***     ** *
1gao:B       1 AFVVTDNCIKCKYTDCVEVCPVDCFYEGPNFLVIHPDECIDCASCEPECPAQAIFSEDEVPEDMQEFIQLN  71
1bc6:A       1 AYVITEPCIGTKDASCVEVCPVDCIHEGEDQYYIDPDVCIDCGACEAVCPVSAIYHEDFVPEEWKSYIQKN  71

               * *     ** *    *  ****     *  *   * ** ** *  ******  **
1gao:B       1 AFVVTDN-CIKCKYTDCVEVCPVDCFY-EGPNFLVIHPDECIDCASCEPECPAQAI  54
SFL95851.1 335 AYVIDEEACIGC--SKCSRVCPVGAISGEIKNPFTIDPDVCIACGACEPECPVSAI 388

               * * *  **  *   *********  **     * ** ****  **  **  **  ** ***     ** *
1gao:C       1 AFVVTDNCIKCKYTDCVEVCPVDCFYEGPNFLVIHPDECIDCASCEPECPAQAIFSEDEVPEDMQEFIQLN  71
1bc6:A       1 AYVITEPCIGTKDASCVEVCPVDCIHEGEDQYYIDPDVCIDCGACEAVCPVSAIYHEDFVPEEWKSYIQKN  71

               * *     ** *    *  ****     *  *   * ** ** *  ******  **
1gao:C       1 AFVVTDN-CIKCKYTDCVEVCPVDCFY-EGPNFLVIHPDECIDCASCEPECPAQAI  54
SFL95851.1 335 AYVIDEEACIGC--SKCSRVCPVGAISGEIKNPFTIDPDVCIACGACEPECPVSAI 388

               * * *  **  *   *********  **     * ** ****  **  **  **  ** ***     ** *
1gao:D       1 AFVVTDNCIKCKYTDCVEVCPVDCFYEGPNFLVIHPDECIDCASCEPECPAQAIFSEDEVPEDMQEFIQLN  71
1bc6:A       1 AYVITEPCIGTKDASCVEVCPVDCIHEGEDQYYIDPDVCIDCGACEAVCPVSAIYHEDFVPEEWKSYIQKN  71

               * *     ** *    *  ****     *  *   * ** ** *  ******  **
1gao:D       1 AFVVTDN-CIKCKYTDCVEVCPVDCFY-EGPNFLVIHPDECIDCASCEPECPAQAI  54
SFL95851.1 335 AYVIDEEACIGC--SKCSRVCPVGAISGEIKNPFTIDPDVCIACGACEPECPVSAI 388

                ** ***** ** ******** **  * ** ** *  *******   *** *** *  *** ***** ***
1h98:A       2 HVICEPCIGVKDQSCVEVCPVECIYDGGDQFYIHPEECIDCGACVPACPVNAIYPEEDVPEQWKSYIEKNR  72
1bc6:A       2 YVITEPCIGTKDASCVEVCPVDCIHEGEDQYYIDPDVCIDCGACEAVCPVSAIYHEDFVPEEWKSYIQKNR  72

               * ***     *  ****  *       * * *  ** **** * *** **
1h98:A       6 EPCIGVKDQSCVEVCPVECIY-DGGDQFYIHPEECIDCGACVPACPVNAI  54
SFL95851.1 341 EACIGC--SKCSRVCPVGAISGEIKNPFTIDPDVCIACGACEPECPVSAI 388

               * * *  **  *   *********  **     * ** ****  **  *   **  ** ***     ** *
1pc4:A       1 AFVVTDNCIKCKYTDCVEVCPVDCFYEGPNFLVIHPDECIDCALCEPECAAQAIFSEDEVPEDMQEFIQLN  71
1bc6:A       1 AYVITEPCIGTKDASCVEVCPVDCIHEGEDQYYIDPDVCIDCGACEAVCPVSAIYHEDFVPEEWKSYIQKN  71

               * *     ** *    *  ****     *  *   * ** ** *  *****   **
1pc4:A       1 AFVVTDN-CIKCKYTDCVEVCPVDCFY-EGPNFLVIHPDECIDCALCEPECAAQAI  54
SFL95851.1 335 AYVIDEEACIGC--SKCSRVCPVGAISGEIKNPFTIDPDVCIACGACEPECPVSAI 388

               * * *  **  *   *********  **     * ** ****  **  *   **  ** ***     ** *
1pc5:A       1 AFVVTDNCIKCKYTDCVEVCPVDCFYEGPNFLVIHPDECIDCALCEPECGAQAIFSEDEVPEDMQEFIQLN  71
1bc6:A       1 AYVITEPCIGTKDASCVEVCPVDCIHEGEDQYYIDPDVCIDCGACEAVCPVSAIYHEDFVPEEWKSYIQKN  71

               * *     ** *    *  ****     *  *   * ** ** *  *****   **
1pc5:A       1 AFVVTDN-CIKCKYTDCVEVCPVDCFY-EGPNFLVIHPDECIDCALCEPECGAQAI  54
SFL95851.1 335 AYVIDEEACIGC--SKCSRVCPVGAISGEIKNPFTIDPDVCIACGACEPECPVSAI 388

               * * *  **  *   ********   **     * ** ****  **  **  **  ** ***     ** *
2fd2:A       1 AFVVTDNCIKCKYTDCVEVCPVDAFYEGPNFLVIHPDECIDCALCEPECPAQAIFSEDEVPEDMQEFIQLN  71
1bc6:A       1 AYVITEPCIGTKDASCVEVCPVDCIHEGEDQYYIDPDVCIDCGACEAVCPVSAIYHEDFVPEEWKSYIQKN  71

               * *     ** *    *  **** *   *  *   * ** ** *  ******  **
2fd2:A       1 AFVVTDN-CIKCKYTDCVEVCPVDAFY-EGPNFLVIHPDECIDCALCEPECPAQAI  54
SFL95851.1 335 AYVIDEEACIGC--SKCSRVCPVGAISGEIKNPFTIDPDVCIACGACEPECPVSAI 388

               *** ***   **  * * ****** **    ** ** * ****** **** *** ** **  * ** * * ***
2v2k:A       2 YVIAEPCVDVKDKACIEECPVDCIYEGARMLYIHPDECVDCGACEPVCPVEAIYYEDDVPDQWSSYAQANADFF  75
1bc6:A       2 YVITEPCIGTKDASCVEVCPVDCIHEGEDQYYIDPDVCIDCGACEAVCPVSAIYHEDFVPEEWKSYIQKNRDFF  75

               ***  * *       *   ***  *  *      * ** *  ****** *** **
2v2k:A       2 YVI-AEPCVDVKDKACIEECPVDCIY-EGARMLYIHPDECVDCGACEPVCPVEAI  54
SFL95851.1 336 YVIDEEACIGC--SKCSRVCPVGAISGEIKNPFTIDPDVCIACGACEPECPVSAI 388

               *** ***   **  * * ****** **    ** ** * ****** **** *** ** **  * ** * * ***
2v2k:B       2 YVIAEPCVDVKDKACIEECPVDCIYEGARMLYIHPDECVDCGACEPVCPVEAIYYEDDVPDQWSSYAQANADFF  75
1bc6:A       2 YVITEPCIGTKDASCVEVCPVDCIHEGEDQYYIDPDVCIDCGACEAVCPVSAIYHEDFVPEEWKSYIQKNRDFF  75

               ***  * *       *   ***  *  *      * ** *  ****** *** **
2v2k:B       2 YVI-AEPCVDVKDKACIEECPVDCIY-EGARMLYIHPDECVDCGACEPVCPVEAI  54
SFL95851.1 336 YVIDEEACIGC--SKCSRVCPVGAISGEIKNPFTIDPDVCIACGACEPECPVSAI 388

               * * *  **  *   *********  **     * ** ****  **  **  **  ** ***     ** *
5fd1:A       1 AFVVTDNCIKCKYTDCVEVCPVDCFYEGPNFLVIHPDECIDCALCEPECPAQAIFSEDEVPEDMQEFIQLN  71
1bc6:A       1 AYVITEPCIGTKDASCVEVCPVDCIHEGEDQYYIDPDVCIDCGACEAVCPVSAIYHEDFVPEEWKSYIQKN  71

               * *     ** *    *  ****     *  *   * ** ** *  ******  **
5fd1:A       1 AFVVTDN-CIKCKYTDCVEVCPVDCFY-EGPNFLVIHPDECIDCALCEPECPAQAI  54
SFL95851.1 335 AYVIDEEACIGC--SKCSRVCPVGAISGEIKNPFTIDPDVCIACGACEPECPVSAI 388

