# Running ./ap_docking_crmsd test_inputs/2m56-ref.pdb CAM test_inputs/00199.pdb test_inputs/00963.pdb test_inputs/04473.pdb
#  name   crmsd  len  crmsd  len
test_inputs/00199.pdb  0.101  404  8.132   11
test_inputs/00963.pdb  0.038  404  1.897   11
test_inputs/04473.pdb  0.069  404  5.530   11
# Running ./ap_docking_crmsd - CAM  test_inputs/2m56-ref.pdb test_inputs/00199.pdb test_inputs/00963.pdb test_inputs/04473.pdb
test_inputs/00199.pdb test_inputs/2m56-ref.pdb 0.101307 8.13182
test_inputs/00963.pdb test_inputs/2m56-ref.pdb 0.0375399 1.89695
test_inputs/00963.pdb test_inputs/00199.pdb 0.107459 8.50431
test_inputs/04473.pdb test_inputs/2m56-ref.pdb 0.0694193 5.5304
test_inputs/04473.pdb test_inputs/00199.pdb 0.107312 4.82765
test_inputs/04473.pdb test_inputs/00963.pdb 0.0772391 5.48939
# Running ./ap_docking_crmsd test_inputs/2kwi.pdb B test_inputs/2kwi.pdb
#  name   crmsd  len  crmsd  len
test_inputs/2kwi.pdb:   0  0.000  178  0.000   56
test_inputs/2kwi.pdb:   1  1.388  178  1.415   56
test_inputs/2kwi.pdb:   2  1.461  178  1.001   56
test_inputs/2kwi.pdb:   3  1.094  178  1.733   56
test_inputs/2kwi.pdb:   4  1.589  178  1.616   56
test_inputs/2kwi.pdb:   5  1.440  178  2.199   56
test_inputs/2kwi.pdb:   6  1.589  178  2.067   56
test_inputs/2kwi.pdb:   7  1.393  178  2.087   56
test_inputs/2kwi.pdb:   8  1.482  178  1.584   56
test_inputs/2kwi.pdb:   9  1.083  178  2.042   56
test_inputs/2kwi.pdb:  10  1.101  178  2.430   56
test_inputs/2kwi.pdb:  11  1.595  178  2.056   56
test_inputs/2kwi.pdb:  12  1.522  178  3.721   56
test_inputs/2kwi.pdb:  13  1.381  178  1.422   56
test_inputs/2kwi.pdb:  14  1.367  178  0.993   56
test_inputs/2kwi.pdb:  15  1.439  178  1.583   56
test_inputs/2kwi.pdb:  16  1.380  178  0.745   56
test_inputs/2kwi.pdb:  17  1.446  178  1.913   56
test_inputs/2kwi.pdb:  18  1.515  178  1.065   56
test_inputs/2kwi.pdb:  19  1.546  178  2.164   56
test_inputs/2kwi.pdb:  20  1.586  178  2.505   56
test_inputs/2kwi.pdb:  21  1.507  178  1.961   56
test_inputs/2kwi.pdb:  22  1.484  178  2.520   56
test_inputs/2kwi.pdb:  23  1.583  178  1.899   56
test_inputs/2kwi.pdb:  24  1.125  178  1.807   56
test_inputs/2kwi.pdb:  25  1.586  178  1.308   56
test_inputs/2kwi.pdb:  26  1.487  178  1.796   56
test_inputs/2kwi.pdb:  27  1.380  178  1.728   56
test_inputs/2kwi.pdb:  28  1.348  178  1.326   56
test_inputs/2kwi.pdb:  29  1.362  178  1.992   56
test_inputs/2kwi.pdb:  30  1.487  178  1.282   56
test_inputs/2kwi.pdb:  31  1.453  178  2.612   56
test_inputs/2kwi.pdb:  32  1.249  178  2.664   56
test_inputs/2kwi.pdb:  33  1.471  178  1.898   56
test_inputs/2kwi.pdb:  34  1.220  178  2.559   56
test_inputs/2kwi.pdb:  35  1.435  178  2.493   56
test_inputs/2kwi.pdb:  36  1.570  178  1.462   56
test_inputs/2kwi.pdb:  37  1.374  178  1.302   56
test_inputs/2kwi.pdb:  38  1.232  178  2.025   56
test_inputs/2kwi.pdb:  39  1.365  178  1.780   56
test_inputs/2kwi.pdb:  40  1.272  178  1.607   56
test_inputs/2kwi.pdb:  41  1.606  178  1.654   56
test_inputs/2kwi.pdb:  42  1.393  178  1.053   56
test_inputs/2kwi.pdb:  43  1.448  178  2.125   56
test_inputs/2kwi.pdb:  44  1.289  178  1.261   56
test_inputs/2kwi.pdb:  45  1.505  178  0.981   56
test_inputs/2kwi.pdb:  46  1.135  178  1.238   56
test_inputs/2kwi.pdb:  47  1.358  178  1.575   56
test_inputs/2kwi.pdb:  48  1.468  178  1.745   56
test_inputs/2kwi.pdb:  49  1.312  178  1.803   56
test_inputs/2kwi.pdb:  50  1.551  178  1.587   56
